-- Merging decision tree log ---
manifest
ADDED from /Volumes/DATA/RUDRA/Projects/ColourPrediction/android/app/src/main/AndroidManifest.xml:1:1-25:12
INJECTED from /Volumes/DATA/RUDRA/Projects/ColourPrediction/android/app/src/main/AndroidManifest.xml:1:1-25:12
INJECTED from /Volumes/DATA/RUDRA/Projects/ColourPrediction/android/app/src/main/AndroidManifest.xml:1:1-25:12
INJECTED from /Volumes/DATA/RUDRA/Projects/ColourPrediction/android/app/src/main/AndroidManifest.xml:1:1-25:12
MERGED from [:react-native-razorpay] /Volumes/DATA/RUDRA/Projects/ColourPrediction/node_modules/react-native-razorpay/android/build/intermediates/merged_manifest/release/AndroidManifest.xml:2:1-15:12
MERGED from [:react-native-async-storage_async-storage] /Volumes/DATA/RUDRA/Projects/ColourPrediction/node_modules/@react-native-async-storage/async-storage/android/build/intermediates/merged_manifest/release/AndroidManifest.xml:2:1-9:12
MERGED from [:react-native-clipboard_clipboard] /Volumes/DATA/RUDRA/Projects/ColourPrediction/node_modules/@react-native-clipboard/clipboard/android/build/intermediates/merged_manifest/release/AndroidManifest.xml:2:1-9:12
MERGED from [:react-native-community_masked-view] /Volumes/DATA/RUDRA/Projects/ColourPrediction/node_modules/@react-native-community/masked-view/android/build/intermediates/merged_manifest/release/AndroidManifest.xml:2:1-9:12
MERGED from [:react-native-community_netinfo] /Volumes/DATA/RUDRA/Projects/ColourPrediction/node_modules/@react-native-community/netinfo/android/build/intermediates/merged_manifest/release/AndroidManifest.xml:2:1-12:12
MERGED from [:paytm_allinone_react-native] /Volumes/DATA/RUDRA/Projects/ColourPrediction/node_modules/paytm_allinone_react-native/android/build/intermediates/merged_manifest/release/AndroidManifest.xml:2:1-9:12
MERGED from [:react-native-background-timer] /Volumes/DATA/RUDRA/Projects/ColourPrediction/node_modules/react-native-background-timer/android/build/intermediates/merged_manifest/release/AndroidManifest.xml:2:1-11:12
MERGED from [:react-native-gesture-handler] /Volumes/DATA/RUDRA/Projects/ColourPrediction/node_modules/react-native-gesture-handler/android/build/intermediates/merged_manifest/release/AndroidManifest.xml:2:1-9:12
MERGED from [:react-native-randombytes] /Volumes/DATA/RUDRA/Projects/ColourPrediction/node_modules/react-native-randombytes/android/build/intermediates/merged_manifest/release/AndroidManifest.xml:2:1-9:12
MERGED from [:react-native-safe-area-context] /Volumes/DATA/RUDRA/Projects/ColourPrediction/node_modules/react-native-safe-area-context/android/build/intermediates/merged_manifest/release/AndroidManifest.xml:2:1-9:12
MERGED from [:react-native-screens] /Volumes/DATA/RUDRA/Projects/ColourPrediction/node_modules/react-native-screens/android/build/intermediates/merged_manifest/release/AndroidManifest.xml:2:1-9:12
MERGED from [:react-native-svg] /Volumes/DATA/RUDRA/Projects/ColourPrediction/node_modules/react-native-svg/android/build/intermediates/merged_manifest/release/AndroidManifest.xml:2:1-9:12
MERGED from [:react-native-vector-icons] /Volumes/DATA/RUDRA/Projects/ColourPrediction/node_modules/react-native-vector-icons/android/build/intermediates/merged_manifest/release/AndroidManifest.xml:2:1-9:12
MERGED from [com.facebook.react:react-native:0.66.4] /Users/imac/.gradle/caches/transforms-3/7403ebe5571a2ce5a6a5fc9876af4814/transformed/jetified-react-native-0.66.4/AndroidManifest.xml:2:1-11:12
MERGED from [com.paytm.appinvokesdk:appinvokesdk:1.6.8] /Users/imac/.gradle/caches/transforms-3/0d6f573ac135240c0c48cb04ed83fe97/transformed/jetified-appinvokesdk-1.6.8/AndroidManifest.xml:2:1-39:12
MERGED from [com.paytm.easypay:easypay-appinvoke:1.7.4] /Users/imac/.gradle/caches/transforms-3/5225b3fd76bb4fd2d840692661ef98c2/transformed/jetified-easypay-appinvoke-1.7.4/AndroidManifest.xml:2:1-27:12
MERGED from [androidx.legacy:legacy-support-v4:1.0.0] /Users/imac/.gradle/caches/transforms-3/67dc7ae83599c50a17d333e48b750491/transformed/legacy-support-v4-1.0.0/AndroidManifest.xml:17:1-22:12
MERGED from [androidx.legacy:legacy-support-core-ui:1.0.0] /Users/imac/.gradle/caches/transforms-3/2d7fccd1f19787d63b03ada961c1fccf/transformed/legacy-support-core-ui-1.0.0/AndroidManifest.xml:17:1-22:12
MERGED from [androidx.swiperefreshlayout:swiperefreshlayout:1.0.0] /Users/imac/.gradle/caches/transforms-3/9341f36f0ce470d4b55127e33c2ce075/transformed/swiperefreshlayout-1.0.0/AndroidManifest.xml:17:1-22:12
MERGED from [com.facebook.fresco:imagepipeline-okhttp3:2.5.0] /Users/imac/.gradle/caches/transforms-3/6d576f05ff2510ef857a4a4bda541865/transformed/jetified-imagepipeline-okhttp3-2.5.0/AndroidManifest.xml:2:1-9:12
MERGED from [org.webkit:android-jsc:r250230] /Users/imac/.gradle/caches/transforms-3/7873a5158addb5bf75ec8bc5226b9f2a/transformed/jetified-android-jsc-r250230/AndroidManifest.xml:2:1-11:12
MERGED from [com.facebook.fresco:fresco:2.5.0] /Users/imac/.gradle/caches/transforms-3/2e3be5b59ff1001e620058abe4b7c8c9/transformed/jetified-fresco-2.5.0/AndroidManifest.xml:2:1-9:12
MERGED from [com.facebook.fresco:drawee:2.5.0] /Users/imac/.gradle/caches/transforms-3/da58426860718cf7cd9b6432bdc1e74c/transformed/jetified-drawee-2.5.0/AndroidManifest.xml:2:1-9:12
MERGED from [com.facebook.fresco:nativeimagefilters:2.5.0] /Users/imac/.gradle/caches/transforms-3/bfcd70de602582dafbe585f453d01685/transformed/jetified-nativeimagefilters-2.5.0/AndroidManifest.xml:2:1-9:12
MERGED from [com.facebook.fresco:memory-type-native:2.5.0] /Users/imac/.gradle/caches/transforms-3/29ad267efc1aa56118152dd96a23ba9e/transformed/jetified-memory-type-native-2.5.0/AndroidManifest.xml:2:1-9:12
MERGED from [com.facebook.fresco:memory-type-java:2.5.0] /Users/imac/.gradle/caches/transforms-3/cfe2fe1266f7b508fab117b793747328/transformed/jetified-memory-type-java-2.5.0/AndroidManifest.xml:2:1-9:12
MERGED from [com.facebook.fresco:imagepipeline-native:2.5.0] /Users/imac/.gradle/caches/transforms-3/78fb03b70f57e7a893ea3d79f69454fd/transformed/jetified-imagepipeline-native-2.5.0/AndroidManifest.xml:2:1-9:12
MERGED from [com.facebook.fresco:memory-type-ashmem:2.5.0] /Users/imac/.gradle/caches/transforms-3/9429e5f71025a78d24a47489563f8c07/transformed/jetified-memory-type-ashmem-2.5.0/AndroidManifest.xml:2:1-9:12
MERGED from [com.facebook.fresco:imagepipeline:2.5.0] /Users/imac/.gradle/caches/transforms-3/5526495f296c8eeaa211326006983f13/transformed/jetified-imagepipeline-2.5.0/AndroidManifest.xml:2:1-9:12
MERGED from [com.facebook.fresco:nativeimagetranscoder:2.5.0] /Users/imac/.gradle/caches/transforms-3/9c9b14e62e6566be253296541a1de4cb/transformed/jetified-nativeimagetranscoder-2.5.0/AndroidManifest.xml:2:1-9:12
MERGED from [com.facebook.fresco:imagepipeline-base:2.5.0] /Users/imac/.gradle/caches/transforms-3/a48e403d00b0b0ddc92ec5c061189973/transformed/jetified-imagepipeline-base-2.5.0/AndroidManifest.xml:2:1-9:12
MERGED from [com.google.android.material:material:1.1.0] /Users/imac/.gradle/caches/transforms-3/94ecee73d302f93903038c0fd7a3667d/transformed/material-1.1.0/AndroidManifest.xml:17:1-24:12
MERGED from [androidx.constraintlayout:constraintlayout:2.1.0] /Users/imac/.gradle/caches/transforms-3/a4249dca298af010155d3c7f935967e5/transformed/constraintlayout-2.1.0/AndroidManifest.xml:2:1-11:12
MERGED from [com.airbnb.android:lottie:3.4.0] /Users/imac/.gradle/caches/transforms-3/573bfaf9407dadb04e71a462a2b7e386/transformed/jetified-lottie-3.4.0/AndroidManifest.xml:2:1-11:12
MERGED from [androidx.appcompat:appcompat:1.3.1] /Users/imac/.gradle/caches/transforms-3/99cdb8e66b958b29cf82acf3628db0b4/transformed/appcompat-1.3.1/AndroidManifest.xml:17:1-24:12
MERGED from [androidx.autofill:autofill:1.1.0] /Users/imac/.gradle/caches/transforms-3/be9076cd4fc3ff6ad98aa6fb277b3148/transformed/jetified-autofill-1.1.0/AndroidManifest.xml:17:1-24:12
MERGED from [com.facebook.fresco:middleware:2.5.0] /Users/imac/.gradle/caches/transforms-3/2bd3d214b93dcf428cfd42cc8814b2ed/transformed/jetified-middleware-2.5.0/AndroidManifest.xml:2:1-9:12
MERGED from [com.facebook.fresco:ui-common:2.5.0] /Users/imac/.gradle/caches/transforms-3/78eba43129e0d31bec1d131435c69dcf/transformed/jetified-ui-common-2.5.0/AndroidManifest.xml:2:1-9:12
MERGED from [com.facebook.fresco:soloader:2.5.0] /Users/imac/.gradle/caches/transforms-3/d6d259317e4a56b55ba587f613fb48a2/transformed/jetified-soloader-2.5.0/AndroidManifest.xml:2:1-9:12
MERGED from [com.facebook.soloader:soloader:0.10.1] /Users/imac/.gradle/caches/transforms-3/4c346baed8905fc786ccf697aebc99f4/transformed/jetified-soloader-0.10.1/AndroidManifest.xml:2:1-13:12
MERGED from [androidx.appcompat:appcompat-resources:1.3.1] /Users/imac/.gradle/caches/transforms-3/04b8000f856b52eb395ccd673fcb9e95/transformed/jetified-appcompat-resources-1.3.1/AndroidManifest.xml:17:1-24:12
MERGED from [androidx.vectordrawable:vectordrawable-animated:1.1.0] /Users/imac/.gradle/caches/transforms-3/57e3d46cd409853c916c88a2c3ae94fd/transformed/vectordrawable-animated-1.1.0/AndroidManifest.xml:17:1-24:12
MERGED from [androidx.interpolator:interpolator:1.0.0] /Users/imac/.gradle/caches/transforms-3/db0f9dfc2cb9e58d20874cad38a46146/transformed/interpolator-1.0.0/AndroidManifest.xml:17:1-22:12
MERGED from [androidx.core:core-ktx:1.6.0] /Users/imac/.gradle/caches/transforms-3/865ea46617bc82e3a12adea34a9680b5/transformed/jetified-core-ktx-1.6.0/AndroidManifest.xml:2:1-9:12
MERGED from [androidx.coordinatorlayout:coordinatorlayout:1.1.0] /Users/imac/.gradle/caches/transforms-3/530e90c3ee142f7f959c69298c7c5ded/transformed/coordinatorlayout-1.1.0/AndroidManifest.xml:17:1-24:12
MERGED from [com.razorpay:checkout:1.6.18] /Users/imac/.gradle/caches/transforms-3/63a66ba671f10b342b82b5ae71175985/transformed/jetified-checkout-1.6.18/AndroidManifest.xml:2:1-67:12
MERGED from [com.google.android.gms:play-services-auth:17.0.0] /Users/imac/.gradle/caches/transforms-3/04d67f04167f9bd7d5a7eb0914da6b2b/transformed/jetified-play-services-auth-17.0.0/AndroidManifest.xml:17:1-39:12
MERGED from [com.google.android.gms:play-services-wallet:18.1.3] /Users/imac/.gradle/caches/transforms-3/16571830b907be46e4b85f32ed065420/transformed/jetified-play-services-wallet-18.1.3/AndroidManifest.xml:17:1-22:12
MERGED from [androidx.viewpager2:viewpager2:1.0.0] /Users/imac/.gradle/caches/transforms-3/a19e52b53eb437c1a1e2beb909f23bc9/transformed/jetified-viewpager2-1.0.0/AndroidManifest.xml:17:1-24:12
MERGED from [com.google.android.gms:play-services-auth-api-phone:17.1.0] /Users/imac/.gradle/caches/transforms-3/b60f7936acbcf9285b08b08eab784897/transformed/jetified-play-services-auth-api-phone-17.1.0/AndroidManifest.xml:2:1-7:12
MERGED from [com.google.android.gms:play-services-auth-base:17.0.0] /Users/imac/.gradle/caches/transforms-3/a43fa50b71b722e559f9860089dd8e87/transformed/jetified-play-services-auth-base-17.0.0/AndroidManifest.xml:2:1-7:12
MERGED from [com.google.android.gms:play-services-identity:17.0.0] /Users/imac/.gradle/caches/transforms-3/d8ddb4461f790b207d9e0de977e1a532/transformed/jetified-play-services-identity-17.0.0/AndroidManifest.xml:17:1-24:12
MERGED from [com.google.android.gms:play-services-maps:17.0.0] /Users/imac/.gradle/caches/transforms-3/6821bfc07eef432b0f26a0acd5357f0f/transformed/jetified-play-services-maps-17.0.0/AndroidManifest.xml:17:1-38:12
MERGED from [com.google.android.gms:play-services-base:17.5.0] /Users/imac/.gradle/caches/transforms-3/92684ae91838cbd2bec86680f9c91f77/transformed/jetified-play-services-base-17.5.0/AndroidManifest.xml:17:1-29:12
MERGED from [com.google.android.gms:play-services-tasks:17.2.1] /Users/imac/.gradle/caches/transforms-3/c40538da6b092d65991aa98428bae53c/transformed/jetified-play-services-tasks-17.2.1/AndroidManifest.xml:2:1-9:12
MERGED from [com.google.android.gms:play-services-basement:17.6.0] /Users/imac/.gradle/caches/transforms-3/060dff7644d80534b68ae20379930fc6/transformed/jetified-play-services-basement-17.6.0/AndroidManifest.xml:17:1-28:12
MERGED from [androidx.fragment:fragment:1.3.6] /Users/imac/.gradle/caches/transforms-3/6002c4bad2084e99b3580f0d613eae70/transformed/fragment-1.3.6/AndroidManifest.xml:17:1-24:12
MERGED from [androidx.cursoradapter:cursoradapter:1.0.0] /Users/imac/.gradle/caches/transforms-3/0be91775d24cf865decfe7ed4d5eda66/transformed/cursoradapter-1.0.0/AndroidManifest.xml:17:1-22:12
MERGED from [androidx.activity:activity:1.2.4] /Users/imac/.gradle/caches/transforms-3/1bc3079e4f53d6fe6635bc7549c1b06e/transformed/jetified-activity-1.2.4/AndroidManifest.xml:17:1-24:12
MERGED from [androidx.drawerlayout:drawerlayout:1.0.0] /Users/imac/.gradle/caches/transforms-3/6fa7b39b5df705c5310dc54c9428ddb2/transformed/drawerlayout-1.0.0/AndroidManifest.xml:17:1-22:12
MERGED from [androidx.lifecycle:lifecycle-viewmodel-savedstate:2.3.1] /Users/imac/.gradle/caches/transforms-3/5b491d77bde65b71a6cae58aa9211dcf/transformed/jetified-lifecycle-viewmodel-savedstate-2.3.1/AndroidManifest.xml:17:1-24:12
MERGED from [androidx.savedstate:savedstate:1.1.0] /Users/imac/.gradle/caches/transforms-3/ecf84c0383f3135c8315e19df5cad97b/transformed/jetified-savedstate-1.1.0/AndroidManifest.xml:17:1-24:12
MERGED from [androidx.databinding:databinding-adapters:4.2.2] /Users/imac/.gradle/caches/transforms-3/0ec9ae79e87bb50ecc9d1f22b72d8423/transformed/databinding-adapters-4.2.2/AndroidManifest.xml:17:1-22:12
MERGED from [androidx.databinding:databinding-runtime:4.2.2] /Users/imac/.gradle/caches/transforms-3/9c07b88e0eb319c189b93edbba1f593b/transformed/databinding-runtime-4.2.2/AndroidManifest.xml:17:1-22:12
MERGED from [androidx.media:media:1.0.0] /Users/imac/.gradle/caches/transforms-3/945f679d5066ec5cea4c418de5c0d6c7/transformed/media-1.0.0/AndroidManifest.xml:17:1-22:12
MERGED from [androidx.legacy:legacy-support-core-utils:1.0.0] /Users/imac/.gradle/caches/transforms-3/d0c159f2eff86f9dd9484771b447df49/transformed/legacy-support-core-utils-1.0.0/AndroidManifest.xml:17:1-22:12
MERGED from [androidx.viewpager:viewpager:1.0.0] /Users/imac/.gradle/caches/transforms-3/09064782b8f9c0d066bcd2a3c8b04255/transformed/viewpager-1.0.0/AndroidManifest.xml:17:1-22:12
MERGED from [androidx.slidingpanelayout:slidingpanelayout:1.0.0] /Users/imac/.gradle/caches/transforms-3/b133b9404a8c5da5d70c49b2ea9a8235/transformed/slidingpanelayout-1.0.0/AndroidManifest.xml:17:1-22:12
MERGED from [androidx.recyclerview:recyclerview:1.1.0] /Users/imac/.gradle/caches/transforms-3/e1b8018dc60702fe7502f85988cad1c2/transformed/recyclerview-1.1.0/AndroidManifest.xml:17:1-24:12
MERGED from [androidx.customview:customview:1.0.0] /Users/imac/.gradle/caches/transforms-3/52776be0cd260004f7c3543526e82dde/transformed/customview-1.0.0/AndroidManifest.xml:17:1-22:12
MERGED from [androidx.transition:transition:1.2.0] /Users/imac/.gradle/caches/transforms-3/40ca51d2249b4d506bc1f8236223e39e/transformed/transition-1.2.0/AndroidManifest.xml:17:1-24:12
MERGED from [androidx.vectordrawable:vectordrawable:1.1.0] /Users/imac/.gradle/caches/transforms-3/bd931bf16554ef3a5f9f30ddc05589c6/transformed/vectordrawable-1.1.0/AndroidManifest.xml:17:1-24:12
MERGED from [androidx.loader:loader:1.0.0] /Users/imac/.gradle/caches/transforms-3/60d60c30d7e19309c125baad97767572/transformed/loader-1.0.0/AndroidManifest.xml:17:1-22:12
MERGED from [androidx.asynclayoutinflater:asynclayoutinflater:1.0.0] /Users/imac/.gradle/caches/transforms-3/e78fd681fe13beced154580660d7b18a/transformed/asynclayoutinflater-1.0.0/AndroidManifest.xml:17:1-22:12
MERGED from [androidx.core:core:1.6.0] /Users/imac/.gradle/caches/transforms-3/5efa136d6b7a2c594211658eacead3c1/transformed/core-1.6.0/AndroidManifest.xml:17:1-26:12
MERGED from [androidx.lifecycle:lifecycle-runtime:2.3.1] /Users/imac/.gradle/caches/transforms-3/95eef8d21bb330bbf58c8c1672988eae/transformed/lifecycle-runtime-2.3.1/AndroidManifest.xml:17:1-24:12
MERGED from [androidx.lifecycle:lifecycle-viewmodel:2.3.1] /Users/imac/.gradle/caches/transforms-3/19dbf037054f995da5dedc6be291ab0b/transformed/lifecycle-viewmodel-2.3.1/AndroidManifest.xml:17:1-24:12
MERGED from [androidx.cardview:cardview:1.0.0] /Users/imac/.gradle/caches/transforms-3/0e82c8f39b666fb3af71c210912c7fc0/transformed/cardview-1.0.0/AndroidManifest.xml:17:1-22:12
MERGED from [androidx.versionedparcelable:versionedparcelable:1.1.1] /Users/imac/.gradle/caches/transforms-3/233eab6c731cb1ce714d2d0256cc6f18/transformed/versionedparcelable-1.1.1/AndroidManifest.xml:17:1-27:12
MERGED from [androidx.tracing:tracing:1.0.0] /Users/imac/.gradle/caches/transforms-3/2b0f8c1393b8d656dc1b4fd4cb42a675/transformed/jetified-tracing-1.0.0/AndroidManifest.xml:17:1-24:12
MERGED from [androidx.lifecycle:lifecycle-livedata:2.0.0] /Users/imac/.gradle/caches/transforms-3/52571f97fa6c48622e09021afd8f199b/transformed/lifecycle-livedata-2.0.0/AndroidManifest.xml:17:1-22:12
MERGED from [androidx.lifecycle:lifecycle-livedata-core:2.3.1] /Users/imac/.gradle/caches/transforms-3/d17db292503a9dfb32fc2010180b8533/transformed/lifecycle-livedata-core-2.3.1/AndroidManifest.xml:17:1-24:12
MERGED from [androidx.arch.core:core-runtime:2.1.0] /Users/imac/.gradle/caches/transforms-3/f9626132104606c8a5a0763d03129850/transformed/core-runtime-2.1.0/AndroidManifest.xml:17:1-24:12
MERGED from [androidx.databinding:viewbinding:4.2.2] /Users/imac/.gradle/caches/transforms-3/ae440361190247cf9a53e8f505dc3740/transformed/jetified-viewbinding-4.2.2/AndroidManifest.xml:17:1-22:12
MERGED from [androidx.documentfile:documentfile:1.0.0] /Users/imac/.gradle/caches/transforms-3/43774a1f0f00442e6ac94bdb87895112/transformed/documentfile-1.0.0/AndroidManifest.xml:17:1-22:12
MERGED from [androidx.localbroadcastmanager:localbroadcastmanager:1.0.0] /Users/imac/.gradle/caches/transforms-3/207c511f44f601b53084c2139b40be16/transformed/localbroadcastmanager-1.0.0/AndroidManifest.xml:17:1-22:12
MERGED from [androidx.print:print:1.0.0] /Users/imac/.gradle/caches/transforms-3/b1dbf150c803dbbe2473340e72042a7f/transformed/print-1.0.0/AndroidManifest.xml:17:1-22:12
MERGED from [com.facebook.fresco:fbcore:2.5.0] /Users/imac/.gradle/caches/transforms-3/80cae4052e041bdf30fb0fa272e54409/transformed/jetified-fbcore-2.5.0/AndroidManifest.xml:2:1-9:12
MERGED from [androidx.annotation:annotation-experimental:1.1.0] /Users/imac/.gradle/caches/transforms-3/62f3224d23caee608d6c9bcfb0d84ebd/transformed/jetified-annotation-experimental-1.1.0/AndroidManifest.xml:17:1-24:12
INJECTED from /Volumes/DATA/RUDRA/Projects/ColourPrediction/android/app/src/main/AndroidManifest.xml:1:1-25:12
INJECTED from /Volumes/DATA/RUDRA/Projects/ColourPrediction/android/app/src/main/AndroidManifest.xml:1:1-25:12
INJECTED from /Volumes/DATA/RUDRA/Projects/ColourPrediction/android/app/src/main/AndroidManifest.xml:1:1-25:12
	package
		ADDED from /Volumes/DATA/RUDRA/Projects/ColourPrediction/android/app/src/main/AndroidManifest.xml:2:3-33
		INJECTED from /Volumes/DATA/RUDRA/Projects/ColourPrediction/android/app/src/main/AndroidManifest.xml
		INJECTED from /Volumes/DATA/RUDRA/Projects/ColourPrediction/android/app/src/main/AndroidManifest.xml
	android:versionName
		INJECTED from /Volumes/DATA/RUDRA/Projects/ColourPrediction/android/app/src/main/AndroidManifest.xml
		ADDED from /Volumes/DATA/RUDRA/Projects/ColourPrediction/android/app/src/main/AndroidManifest.xml:1:1-25:12
		INJECTED from /Volumes/DATA/RUDRA/Projects/ColourPrediction/android/app/src/main/AndroidManifest.xml
	android:versionCode
		INJECTED from /Volumes/DATA/RUDRA/Projects/ColourPrediction/android/app/src/main/AndroidManifest.xml
		ADDED from /Volumes/DATA/RUDRA/Projects/ColourPrediction/android/app/src/main/AndroidManifest.xml:1:1-25:12
		INJECTED from /Volumes/DATA/RUDRA/Projects/ColourPrediction/android/app/src/main/AndroidManifest.xml
	xmlns:android
		ADDED from /Volumes/DATA/RUDRA/Projects/ColourPrediction/android/app/src/main/AndroidManifest.xml:1:11-69
uses-permission#android.permission.INTERNET
ADDED from /Volumes/DATA/RUDRA/Projects/ColourPrediction/android/app/src/main/AndroidManifest.xml:4:5-67
MERGED from [com.razorpay:checkout:1.6.18] /Users/imac/.gradle/caches/transforms-3/63a66ba671f10b342b82b5ae71175985/transformed/jetified-checkout-1.6.18/AndroidManifest.xml:9:5-67
MERGED from [com.razorpay:checkout:1.6.18] /Users/imac/.gradle/caches/transforms-3/63a66ba671f10b342b82b5ae71175985/transformed/jetified-checkout-1.6.18/AndroidManifest.xml:9:5-67
MERGED from [com.google.android.gms:play-services-maps:17.0.0] /Users/imac/.gradle/caches/transforms-3/6821bfc07eef432b0f26a0acd5357f0f/transformed/jetified-play-services-maps-17.0.0/AndroidManifest.xml:24:5-67
MERGED from [com.google.android.gms:play-services-maps:17.0.0] /Users/imac/.gradle/caches/transforms-3/6821bfc07eef432b0f26a0acd5357f0f/transformed/jetified-play-services-maps-17.0.0/AndroidManifest.xml:24:5-67
	android:name
		ADDED from /Volumes/DATA/RUDRA/Projects/ColourPrediction/android/app/src/main/AndroidManifest.xml:4:22-64
application
ADDED from /Volumes/DATA/RUDRA/Projects/ColourPrediction/android/app/src/main/AndroidManifest.xml:6:5-24:19
MERGED from [:react-native-razorpay] /Volumes/DATA/RUDRA/Projects/ColourPrediction/node_modules/react-native-razorpay/android/build/intermediates/merged_manifest/release/AndroidManifest.xml:9:5-13:19
MERGED from [:react-native-razorpay] /Volumes/DATA/RUDRA/Projects/ColourPrediction/node_modules/react-native-razorpay/android/build/intermediates/merged_manifest/release/AndroidManifest.xml:9:5-13:19
MERGED from [com.facebook.react:react-native:0.66.4] /Users/imac/.gradle/caches/transforms-3/7403ebe5571a2ce5a6a5fc9876af4814/transformed/jetified-react-native-0.66.4/AndroidManifest.xml:9:5-20
MERGED from [com.facebook.react:react-native:0.66.4] /Users/imac/.gradle/caches/transforms-3/7403ebe5571a2ce5a6a5fc9876af4814/transformed/jetified-react-native-0.66.4/AndroidManifest.xml:9:5-20
MERGED from [com.paytm.appinvokesdk:appinvokesdk:1.6.8] /Users/imac/.gradle/caches/transforms-3/0d6f573ac135240c0c48cb04ed83fe97/transformed/jetified-appinvokesdk-1.6.8/AndroidManifest.xml:22:5-37:19
MERGED from [com.paytm.appinvokesdk:appinvokesdk:1.6.8] /Users/imac/.gradle/caches/transforms-3/0d6f573ac135240c0c48cb04ed83fe97/transformed/jetified-appinvokesdk-1.6.8/AndroidManifest.xml:22:5-37:19
MERGED from [com.paytm.easypay:easypay-appinvoke:1.7.4] /Users/imac/.gradle/caches/transforms-3/5225b3fd76bb4fd2d840692661ef98c2/transformed/jetified-easypay-appinvoke-1.7.4/AndroidManifest.xml:13:5-25:19
MERGED from [com.paytm.easypay:easypay-appinvoke:1.7.4] /Users/imac/.gradle/caches/transforms-3/5225b3fd76bb4fd2d840692661ef98c2/transformed/jetified-easypay-appinvoke-1.7.4/AndroidManifest.xml:13:5-25:19
MERGED from [com.google.android.material:material:1.1.0] /Users/imac/.gradle/caches/transforms-3/94ecee73d302f93903038c0fd7a3667d/transformed/material-1.1.0/AndroidManifest.xml:22:5-20
MERGED from [com.google.android.material:material:1.1.0] /Users/imac/.gradle/caches/transforms-3/94ecee73d302f93903038c0fd7a3667d/transformed/material-1.1.0/AndroidManifest.xml:22:5-20
MERGED from [androidx.constraintlayout:constraintlayout:2.1.0] /Users/imac/.gradle/caches/transforms-3/a4249dca298af010155d3c7f935967e5/transformed/constraintlayout-2.1.0/AndroidManifest.xml:9:5-20
MERGED from [androidx.constraintlayout:constraintlayout:2.1.0] /Users/imac/.gradle/caches/transforms-3/a4249dca298af010155d3c7f935967e5/transformed/constraintlayout-2.1.0/AndroidManifest.xml:9:5-20
MERGED from [com.airbnb.android:lottie:3.4.0] /Users/imac/.gradle/caches/transforms-3/573bfaf9407dadb04e71a462a2b7e386/transformed/jetified-lottie-3.4.0/AndroidManifest.xml:9:5-20
MERGED from [com.airbnb.android:lottie:3.4.0] /Users/imac/.gradle/caches/transforms-3/573bfaf9407dadb04e71a462a2b7e386/transformed/jetified-lottie-3.4.0/AndroidManifest.xml:9:5-20
MERGED from [com.facebook.soloader:soloader:0.10.1] /Users/imac/.gradle/caches/transforms-3/4c346baed8905fc786ccf697aebc99f4/transformed/jetified-soloader-0.10.1/AndroidManifest.xml:11:5-20
MERGED from [com.facebook.soloader:soloader:0.10.1] /Users/imac/.gradle/caches/transforms-3/4c346baed8905fc786ccf697aebc99f4/transformed/jetified-soloader-0.10.1/AndroidManifest.xml:11:5-20
MERGED from [com.razorpay:checkout:1.6.18] /Users/imac/.gradle/caches/transforms-3/63a66ba671f10b342b82b5ae71175985/transformed/jetified-checkout-1.6.18/AndroidManifest.xml:39:5-65:19
MERGED from [com.razorpay:checkout:1.6.18] /Users/imac/.gradle/caches/transforms-3/63a66ba671f10b342b82b5ae71175985/transformed/jetified-checkout-1.6.18/AndroidManifest.xml:39:5-65:19
MERGED from [com.google.android.gms:play-services-auth:17.0.0] /Users/imac/.gradle/caches/transforms-3/04d67f04167f9bd7d5a7eb0914da6b2b/transformed/jetified-play-services-auth-17.0.0/AndroidManifest.xml:22:5-37:19
MERGED from [com.google.android.gms:play-services-auth:17.0.0] /Users/imac/.gradle/caches/transforms-3/04d67f04167f9bd7d5a7eb0914da6b2b/transformed/jetified-play-services-auth-17.0.0/AndroidManifest.xml:22:5-37:19
MERGED from [com.google.android.gms:play-services-identity:17.0.0] /Users/imac/.gradle/caches/transforms-3/d8ddb4461f790b207d9e0de977e1a532/transformed/jetified-play-services-identity-17.0.0/AndroidManifest.xml:22:5-20
MERGED from [com.google.android.gms:play-services-identity:17.0.0] /Users/imac/.gradle/caches/transforms-3/d8ddb4461f790b207d9e0de977e1a532/transformed/jetified-play-services-identity-17.0.0/AndroidManifest.xml:22:5-20
MERGED from [com.google.android.gms:play-services-maps:17.0.0] /Users/imac/.gradle/caches/transforms-3/6821bfc07eef432b0f26a0acd5357f0f/transformed/jetified-play-services-maps-17.0.0/AndroidManifest.xml:30:5-36:19
MERGED from [com.google.android.gms:play-services-maps:17.0.0] /Users/imac/.gradle/caches/transforms-3/6821bfc07eef432b0f26a0acd5357f0f/transformed/jetified-play-services-maps-17.0.0/AndroidManifest.xml:30:5-36:19
MERGED from [com.google.android.gms:play-services-base:17.5.0] /Users/imac/.gradle/caches/transforms-3/92684ae91838cbd2bec86680f9c91f77/transformed/jetified-play-services-base-17.5.0/AndroidManifest.xml:22:5-27:19
MERGED from [com.google.android.gms:play-services-base:17.5.0] /Users/imac/.gradle/caches/transforms-3/92684ae91838cbd2bec86680f9c91f77/transformed/jetified-play-services-base-17.5.0/AndroidManifest.xml:22:5-27:19
MERGED from [com.google.android.gms:play-services-tasks:17.2.1] /Users/imac/.gradle/caches/transforms-3/c40538da6b092d65991aa98428bae53c/transformed/jetified-play-services-tasks-17.2.1/AndroidManifest.xml:7:5-20
MERGED from [com.google.android.gms:play-services-tasks:17.2.1] /Users/imac/.gradle/caches/transforms-3/c40538da6b092d65991aa98428bae53c/transformed/jetified-play-services-tasks-17.2.1/AndroidManifest.xml:7:5-20
MERGED from [com.google.android.gms:play-services-basement:17.6.0] /Users/imac/.gradle/caches/transforms-3/060dff7644d80534b68ae20379930fc6/transformed/jetified-play-services-basement-17.6.0/AndroidManifest.xml:22:5-26:19
MERGED from [com.google.android.gms:play-services-basement:17.6.0] /Users/imac/.gradle/caches/transforms-3/060dff7644d80534b68ae20379930fc6/transformed/jetified-play-services-basement-17.6.0/AndroidManifest.xml:22:5-26:19
MERGED from [androidx.core:core:1.6.0] /Users/imac/.gradle/caches/transforms-3/5efa136d6b7a2c594211658eacead3c1/transformed/core-1.6.0/AndroidManifest.xml:24:5-89
MERGED from [androidx.core:core:1.6.0] /Users/imac/.gradle/caches/transforms-3/5efa136d6b7a2c594211658eacead3c1/transformed/core-1.6.0/AndroidManifest.xml:24:5-89
MERGED from [androidx.versionedparcelable:versionedparcelable:1.1.1] /Users/imac/.gradle/caches/transforms-3/233eab6c731cb1ce714d2d0256cc6f18/transformed/versionedparcelable-1.1.1/AndroidManifest.xml:24:5-25:19
MERGED from [androidx.versionedparcelable:versionedparcelable:1.1.1] /Users/imac/.gradle/caches/transforms-3/233eab6c731cb1ce714d2d0256cc6f18/transformed/versionedparcelable-1.1.1/AndroidManifest.xml:24:5-25:19
	android:appComponentFactory
		ADDED from [androidx.core:core:1.6.0] /Users/imac/.gradle/caches/transforms-3/5efa136d6b7a2c594211658eacead3c1/transformed/core-1.6.0/AndroidManifest.xml:24:18-86
	android:label
		ADDED from /Volumes/DATA/RUDRA/Projects/ColourPrediction/android/app/src/main/AndroidManifest.xml:8:7-39
	android:roundIcon
		ADDED from /Volumes/DATA/RUDRA/Projects/ColourPrediction/android/app/src/main/AndroidManifest.xml:10:7-46
	android:icon
		ADDED from /Volumes/DATA/RUDRA/Projects/ColourPrediction/android/app/src/main/AndroidManifest.xml:9:7-41
	android:allowBackup
		ADDED from /Volumes/DATA/RUDRA/Projects/ColourPrediction/android/app/src/main/AndroidManifest.xml:11:7-34
	android:theme
		ADDED from /Volumes/DATA/RUDRA/Projects/ColourPrediction/android/app/src/main/AndroidManifest.xml:12:7-38
	android:name
		ADDED from /Volumes/DATA/RUDRA/Projects/ColourPrediction/android/app/src/main/AndroidManifest.xml:7:7-38
activity#com.colourprediction.MainActivity
ADDED from /Volumes/DATA/RUDRA/Projects/ColourPrediction/android/app/src/main/AndroidManifest.xml:13:7-23:18
	android:label
		ADDED from /Volumes/DATA/RUDRA/Projects/ColourPrediction/android/app/src/main/AndroidManifest.xml:15:9-41
	android:launchMode
		ADDED from /Volumes/DATA/RUDRA/Projects/ColourPrediction/android/app/src/main/AndroidManifest.xml:17:9-40
	android:windowSoftInputMode
		ADDED from /Volumes/DATA/RUDRA/Projects/ColourPrediction/android/app/src/main/AndroidManifest.xml:18:9-48
	android:configChanges
		ADDED from /Volumes/DATA/RUDRA/Projects/ColourPrediction/android/app/src/main/AndroidManifest.xml:16:9-86
	android:name
		ADDED from /Volumes/DATA/RUDRA/Projects/ColourPrediction/android/app/src/main/AndroidManifest.xml:14:9-37
intent-filter#action:name:android.intent.action.MAIN+category:name:android.intent.category.LAUNCHER
ADDED from /Volumes/DATA/RUDRA/Projects/ColourPrediction/android/app/src/main/AndroidManifest.xml:19:9-22:25
action#android.intent.action.MAIN
ADDED from /Volumes/DATA/RUDRA/Projects/ColourPrediction/android/app/src/main/AndroidManifest.xml:20:13-65
	android:name
		ADDED from /Volumes/DATA/RUDRA/Projects/ColourPrediction/android/app/src/main/AndroidManifest.xml:20:21-62
category#android.intent.category.LAUNCHER
ADDED from /Volumes/DATA/RUDRA/Projects/ColourPrediction/android/app/src/main/AndroidManifest.xml:21:13-73
	android:name
		ADDED from /Volumes/DATA/RUDRA/Projects/ColourPrediction/android/app/src/main/AndroidManifest.xml:21:23-70
uses-sdk
INJECTED from /Volumes/DATA/RUDRA/Projects/ColourPrediction/android/app/src/main/AndroidManifest.xml reason: use-sdk injection requested
INJECTED from /Volumes/DATA/RUDRA/Projects/ColourPrediction/android/app/src/main/AndroidManifest.xml
INJECTED from /Volumes/DATA/RUDRA/Projects/ColourPrediction/android/app/src/main/AndroidManifest.xml
MERGED from [:react-native-razorpay] /Volumes/DATA/RUDRA/Projects/ColourPrediction/node_modules/react-native-razorpay/android/build/intermediates/merged_manifest/release/AndroidManifest.xml:5:5-7:41
MERGED from [:react-native-razorpay] /Volumes/DATA/RUDRA/Projects/ColourPrediction/node_modules/react-native-razorpay/android/build/intermediates/merged_manifest/release/AndroidManifest.xml:5:5-7:41
MERGED from [:react-native-async-storage_async-storage] /Volumes/DATA/RUDRA/Projects/ColourPrediction/node_modules/@react-native-async-storage/async-storage/android/build/intermediates/merged_manifest/release/AndroidManifest.xml:5:5-7:41
MERGED from [:react-native-async-storage_async-storage] /Volumes/DATA/RUDRA/Projects/ColourPrediction/node_modules/@react-native-async-storage/async-storage/android/build/intermediates/merged_manifest/release/AndroidManifest.xml:5:5-7:41
MERGED from [:react-native-clipboard_clipboard] /Volumes/DATA/RUDRA/Projects/ColourPrediction/node_modules/@react-native-clipboard/clipboard/android/build/intermediates/merged_manifest/release/AndroidManifest.xml:5:5-7:41
MERGED from [:react-native-clipboard_clipboard] /Volumes/DATA/RUDRA/Projects/ColourPrediction/node_modules/@react-native-clipboard/clipboard/android/build/intermediates/merged_manifest/release/AndroidManifest.xml:5:5-7:41
MERGED from [:react-native-community_masked-view] /Volumes/DATA/RUDRA/Projects/ColourPrediction/node_modules/@react-native-community/masked-view/android/build/intermediates/merged_manifest/release/AndroidManifest.xml:5:5-7:41
MERGED from [:react-native-community_masked-view] /Volumes/DATA/RUDRA/Projects/ColourPrediction/node_modules/@react-native-community/masked-view/android/build/intermediates/merged_manifest/release/AndroidManifest.xml:5:5-7:41
MERGED from [:react-native-community_netinfo] /Volumes/DATA/RUDRA/Projects/ColourPrediction/node_modules/@react-native-community/netinfo/android/build/intermediates/merged_manifest/release/AndroidManifest.xml:5:5-7:41
MERGED from [:react-native-community_netinfo] /Volumes/DATA/RUDRA/Projects/ColourPrediction/node_modules/@react-native-community/netinfo/android/build/intermediates/merged_manifest/release/AndroidManifest.xml:5:5-7:41
MERGED from [:paytm_allinone_react-native] /Volumes/DATA/RUDRA/Projects/ColourPrediction/node_modules/paytm_allinone_react-native/android/build/intermediates/merged_manifest/release/AndroidManifest.xml:5:5-7:41
MERGED from [:paytm_allinone_react-native] /Volumes/DATA/RUDRA/Projects/ColourPrediction/node_modules/paytm_allinone_react-native/android/build/intermediates/merged_manifest/release/AndroidManifest.xml:5:5-7:41
MERGED from [:react-native-background-timer] /Volumes/DATA/RUDRA/Projects/ColourPrediction/node_modules/react-native-background-timer/android/build/intermediates/merged_manifest/release/AndroidManifest.xml:5:5-7:41
MERGED from [:react-native-background-timer] /Volumes/DATA/RUDRA/Projects/ColourPrediction/node_modules/react-native-background-timer/android/build/intermediates/merged_manifest/release/AndroidManifest.xml:5:5-7:41
MERGED from [:react-native-gesture-handler] /Volumes/DATA/RUDRA/Projects/ColourPrediction/node_modules/react-native-gesture-handler/android/build/intermediates/merged_manifest/release/AndroidManifest.xml:5:5-7:41
MERGED from [:react-native-gesture-handler] /Volumes/DATA/RUDRA/Projects/ColourPrediction/node_modules/react-native-gesture-handler/android/build/intermediates/merged_manifest/release/AndroidManifest.xml:5:5-7:41
MERGED from [:react-native-randombytes] /Volumes/DATA/RUDRA/Projects/ColourPrediction/node_modules/react-native-randombytes/android/build/intermediates/merged_manifest/release/AndroidManifest.xml:5:5-7:41
MERGED from [:react-native-randombytes] /Volumes/DATA/RUDRA/Projects/ColourPrediction/node_modules/react-native-randombytes/android/build/intermediates/merged_manifest/release/AndroidManifest.xml:5:5-7:41
MERGED from [:react-native-safe-area-context] /Volumes/DATA/RUDRA/Projects/ColourPrediction/node_modules/react-native-safe-area-context/android/build/intermediates/merged_manifest/release/AndroidManifest.xml:5:5-7:41
MERGED from [:react-native-safe-area-context] /Volumes/DATA/RUDRA/Projects/ColourPrediction/node_modules/react-native-safe-area-context/android/build/intermediates/merged_manifest/release/AndroidManifest.xml:5:5-7:41
MERGED from [:react-native-screens] /Volumes/DATA/RUDRA/Projects/ColourPrediction/node_modules/react-native-screens/android/build/intermediates/merged_manifest/release/AndroidManifest.xml:5:5-7:41
MERGED from [:react-native-screens] /Volumes/DATA/RUDRA/Projects/ColourPrediction/node_modules/react-native-screens/android/build/intermediates/merged_manifest/release/AndroidManifest.xml:5:5-7:41
MERGED from [:react-native-svg] /Volumes/DATA/RUDRA/Projects/ColourPrediction/node_modules/react-native-svg/android/build/intermediates/merged_manifest/release/AndroidManifest.xml:5:5-7:41
MERGED from [:react-native-svg] /Volumes/DATA/RUDRA/Projects/ColourPrediction/node_modules/react-native-svg/android/build/intermediates/merged_manifest/release/AndroidManifest.xml:5:5-7:41
MERGED from [:react-native-vector-icons] /Volumes/DATA/RUDRA/Projects/ColourPrediction/node_modules/react-native-vector-icons/android/build/intermediates/merged_manifest/release/AndroidManifest.xml:5:5-7:41
MERGED from [:react-native-vector-icons] /Volumes/DATA/RUDRA/Projects/ColourPrediction/node_modules/react-native-vector-icons/android/build/intermediates/merged_manifest/release/AndroidManifest.xml:5:5-7:41
MERGED from [com.facebook.react:react-native:0.66.4] /Users/imac/.gradle/caches/transforms-3/7403ebe5571a2ce5a6a5fc9876af4814/transformed/jetified-react-native-0.66.4/AndroidManifest.xml:5:5-7:41
MERGED from [com.facebook.react:react-native:0.66.4] /Users/imac/.gradle/caches/transforms-3/7403ebe5571a2ce5a6a5fc9876af4814/transformed/jetified-react-native-0.66.4/AndroidManifest.xml:5:5-7:41
MERGED from [com.paytm.appinvokesdk:appinvokesdk:1.6.8] /Users/imac/.gradle/caches/transforms-3/0d6f573ac135240c0c48cb04ed83fe97/transformed/jetified-appinvokesdk-1.6.8/AndroidManifest.xml:5:5-44
MERGED from [com.paytm.appinvokesdk:appinvokesdk:1.6.8] /Users/imac/.gradle/caches/transforms-3/0d6f573ac135240c0c48cb04ed83fe97/transformed/jetified-appinvokesdk-1.6.8/AndroidManifest.xml:5:5-44
MERGED from [com.paytm.easypay:easypay-appinvoke:1.7.4] /Users/imac/.gradle/caches/transforms-3/5225b3fd76bb4fd2d840692661ef98c2/transformed/jetified-easypay-appinvoke-1.7.4/AndroidManifest.xml:5:5-7:41
MERGED from [com.paytm.easypay:easypay-appinvoke:1.7.4] /Users/imac/.gradle/caches/transforms-3/5225b3fd76bb4fd2d840692661ef98c2/transformed/jetified-easypay-appinvoke-1.7.4/AndroidManifest.xml:5:5-7:41
MERGED from [androidx.legacy:legacy-support-v4:1.0.0] /Users/imac/.gradle/caches/transforms-3/67dc7ae83599c50a17d333e48b750491/transformed/legacy-support-v4-1.0.0/AndroidManifest.xml:20:5-44
MERGED from [androidx.legacy:legacy-support-v4:1.0.0] /Users/imac/.gradle/caches/transforms-3/67dc7ae83599c50a17d333e48b750491/transformed/legacy-support-v4-1.0.0/AndroidManifest.xml:20:5-44
MERGED from [androidx.legacy:legacy-support-core-ui:1.0.0] /Users/imac/.gradle/caches/transforms-3/2d7fccd1f19787d63b03ada961c1fccf/transformed/legacy-support-core-ui-1.0.0/AndroidManifest.xml:20:5-44
MERGED from [androidx.legacy:legacy-support-core-ui:1.0.0] /Users/imac/.gradle/caches/transforms-3/2d7fccd1f19787d63b03ada961c1fccf/transformed/legacy-support-core-ui-1.0.0/AndroidManifest.xml:20:5-44
MERGED from [androidx.swiperefreshlayout:swiperefreshlayout:1.0.0] /Users/imac/.gradle/caches/transforms-3/9341f36f0ce470d4b55127e33c2ce075/transformed/swiperefreshlayout-1.0.0/AndroidManifest.xml:20:5-44
MERGED from [androidx.swiperefreshlayout:swiperefreshlayout:1.0.0] /Users/imac/.gradle/caches/transforms-3/9341f36f0ce470d4b55127e33c2ce075/transformed/swiperefreshlayout-1.0.0/AndroidManifest.xml:20:5-44
MERGED from [com.facebook.fresco:imagepipeline-okhttp3:2.5.0] /Users/imac/.gradle/caches/transforms-3/6d576f05ff2510ef857a4a4bda541865/transformed/jetified-imagepipeline-okhttp3-2.5.0/AndroidManifest.xml:5:5-7:41
MERGED from [com.facebook.fresco:imagepipeline-okhttp3:2.5.0] /Users/imac/.gradle/caches/transforms-3/6d576f05ff2510ef857a4a4bda541865/transformed/jetified-imagepipeline-okhttp3-2.5.0/AndroidManifest.xml:5:5-7:41
MERGED from [org.webkit:android-jsc:r250230] /Users/imac/.gradle/caches/transforms-3/7873a5158addb5bf75ec8bc5226b9f2a/transformed/jetified-android-jsc-r250230/AndroidManifest.xml:7:5-9:41
MERGED from [org.webkit:android-jsc:r250230] /Users/imac/.gradle/caches/transforms-3/7873a5158addb5bf75ec8bc5226b9f2a/transformed/jetified-android-jsc-r250230/AndroidManifest.xml:7:5-9:41
MERGED from [com.facebook.fresco:fresco:2.5.0] /Users/imac/.gradle/caches/transforms-3/2e3be5b59ff1001e620058abe4b7c8c9/transformed/jetified-fresco-2.5.0/AndroidManifest.xml:5:5-7:41
MERGED from [com.facebook.fresco:fresco:2.5.0] /Users/imac/.gradle/caches/transforms-3/2e3be5b59ff1001e620058abe4b7c8c9/transformed/jetified-fresco-2.5.0/AndroidManifest.xml:5:5-7:41
MERGED from [com.facebook.fresco:drawee:2.5.0] /Users/imac/.gradle/caches/transforms-3/da58426860718cf7cd9b6432bdc1e74c/transformed/jetified-drawee-2.5.0/AndroidManifest.xml:5:5-7:41
MERGED from [com.facebook.fresco:drawee:2.5.0] /Users/imac/.gradle/caches/transforms-3/da58426860718cf7cd9b6432bdc1e74c/transformed/jetified-drawee-2.5.0/AndroidManifest.xml:5:5-7:41
MERGED from [com.facebook.fresco:nativeimagefilters:2.5.0] /Users/imac/.gradle/caches/transforms-3/bfcd70de602582dafbe585f453d01685/transformed/jetified-nativeimagefilters-2.5.0/AndroidManifest.xml:5:5-7:41
MERGED from [com.facebook.fresco:nativeimagefilters:2.5.0] /Users/imac/.gradle/caches/transforms-3/bfcd70de602582dafbe585f453d01685/transformed/jetified-nativeimagefilters-2.5.0/AndroidManifest.xml:5:5-7:41
MERGED from [com.facebook.fresco:memory-type-native:2.5.0] /Users/imac/.gradle/caches/transforms-3/29ad267efc1aa56118152dd96a23ba9e/transformed/jetified-memory-type-native-2.5.0/AndroidManifest.xml:5:5-7:41
MERGED from [com.facebook.fresco:memory-type-native:2.5.0] /Users/imac/.gradle/caches/transforms-3/29ad267efc1aa56118152dd96a23ba9e/transformed/jetified-memory-type-native-2.5.0/AndroidManifest.xml:5:5-7:41
MERGED from [com.facebook.fresco:memory-type-java:2.5.0] /Users/imac/.gradle/caches/transforms-3/cfe2fe1266f7b508fab117b793747328/transformed/jetified-memory-type-java-2.5.0/AndroidManifest.xml:5:5-7:41
MERGED from [com.facebook.fresco:memory-type-java:2.5.0] /Users/imac/.gradle/caches/transforms-3/cfe2fe1266f7b508fab117b793747328/transformed/jetified-memory-type-java-2.5.0/AndroidManifest.xml:5:5-7:41
MERGED from [com.facebook.fresco:imagepipeline-native:2.5.0] /Users/imac/.gradle/caches/transforms-3/78fb03b70f57e7a893ea3d79f69454fd/transformed/jetified-imagepipeline-native-2.5.0/AndroidManifest.xml:5:5-7:41
MERGED from [com.facebook.fresco:imagepipeline-native:2.5.0] /Users/imac/.gradle/caches/transforms-3/78fb03b70f57e7a893ea3d79f69454fd/transformed/jetified-imagepipeline-native-2.5.0/AndroidManifest.xml:5:5-7:41
MERGED from [com.facebook.fresco:memory-type-ashmem:2.5.0] /Users/imac/.gradle/caches/transforms-3/9429e5f71025a78d24a47489563f8c07/transformed/jetified-memory-type-ashmem-2.5.0/AndroidManifest.xml:5:5-7:41
MERGED from [com.facebook.fresco:memory-type-ashmem:2.5.0] /Users/imac/.gradle/caches/transforms-3/9429e5f71025a78d24a47489563f8c07/transformed/jetified-memory-type-ashmem-2.5.0/AndroidManifest.xml:5:5-7:41
MERGED from [com.facebook.fresco:imagepipeline:2.5.0] /Users/imac/.gradle/caches/transforms-3/5526495f296c8eeaa211326006983f13/transformed/jetified-imagepipeline-2.5.0/AndroidManifest.xml:5:5-7:41
MERGED from [com.facebook.fresco:imagepipeline:2.5.0] /Users/imac/.gradle/caches/transforms-3/5526495f296c8eeaa211326006983f13/transformed/jetified-imagepipeline-2.5.0/AndroidManifest.xml:5:5-7:41
MERGED from [com.facebook.fresco:nativeimagetranscoder:2.5.0] /Users/imac/.gradle/caches/transforms-3/9c9b14e62e6566be253296541a1de4cb/transformed/jetified-nativeimagetranscoder-2.5.0/AndroidManifest.xml:5:5-7:41
MERGED from [com.facebook.fresco:nativeimagetranscoder:2.5.0] /Users/imac/.gradle/caches/transforms-3/9c9b14e62e6566be253296541a1de4cb/transformed/jetified-nativeimagetranscoder-2.5.0/AndroidManifest.xml:5:5-7:41
MERGED from [com.facebook.fresco:imagepipeline-base:2.5.0] /Users/imac/.gradle/caches/transforms-3/a48e403d00b0b0ddc92ec5c061189973/transformed/jetified-imagepipeline-base-2.5.0/AndroidManifest.xml:5:5-7:41
MERGED from [com.facebook.fresco:imagepipeline-base:2.5.0] /Users/imac/.gradle/caches/transforms-3/a48e403d00b0b0ddc92ec5c061189973/transformed/jetified-imagepipeline-base-2.5.0/AndroidManifest.xml:5:5-7:41
MERGED from [com.google.android.material:material:1.1.0] /Users/imac/.gradle/caches/transforms-3/94ecee73d302f93903038c0fd7a3667d/transformed/material-1.1.0/AndroidManifest.xml:20:5-44
MERGED from [com.google.android.material:material:1.1.0] /Users/imac/.gradle/caches/transforms-3/94ecee73d302f93903038c0fd7a3667d/transformed/material-1.1.0/AndroidManifest.xml:20:5-44
MERGED from [androidx.constraintlayout:constraintlayout:2.1.0] /Users/imac/.gradle/caches/transforms-3/a4249dca298af010155d3c7f935967e5/transformed/constraintlayout-2.1.0/AndroidManifest.xml:5:5-7:41
MERGED from [androidx.constraintlayout:constraintlayout:2.1.0] /Users/imac/.gradle/caches/transforms-3/a4249dca298af010155d3c7f935967e5/transformed/constraintlayout-2.1.0/AndroidManifest.xml:5:5-7:41
MERGED from [com.airbnb.android:lottie:3.4.0] /Users/imac/.gradle/caches/transforms-3/573bfaf9407dadb04e71a462a2b7e386/transformed/jetified-lottie-3.4.0/AndroidManifest.xml:5:5-7:41
MERGED from [com.airbnb.android:lottie:3.4.0] /Users/imac/.gradle/caches/transforms-3/573bfaf9407dadb04e71a462a2b7e386/transformed/jetified-lottie-3.4.0/AndroidManifest.xml:5:5-7:41
MERGED from [androidx.appcompat:appcompat:1.3.1] /Users/imac/.gradle/caches/transforms-3/99cdb8e66b958b29cf82acf3628db0b4/transformed/appcompat-1.3.1/AndroidManifest.xml:20:5-22:41
MERGED from [androidx.appcompat:appcompat:1.3.1] /Users/imac/.gradle/caches/transforms-3/99cdb8e66b958b29cf82acf3628db0b4/transformed/appcompat-1.3.1/AndroidManifest.xml:20:5-22:41
MERGED from [androidx.autofill:autofill:1.1.0] /Users/imac/.gradle/caches/transforms-3/be9076cd4fc3ff6ad98aa6fb277b3148/transformed/jetified-autofill-1.1.0/AndroidManifest.xml:20:5-22:41
MERGED from [androidx.autofill:autofill:1.1.0] /Users/imac/.gradle/caches/transforms-3/be9076cd4fc3ff6ad98aa6fb277b3148/transformed/jetified-autofill-1.1.0/AndroidManifest.xml:20:5-22:41
MERGED from [com.facebook.fresco:middleware:2.5.0] /Users/imac/.gradle/caches/transforms-3/2bd3d214b93dcf428cfd42cc8814b2ed/transformed/jetified-middleware-2.5.0/AndroidManifest.xml:5:5-7:41
MERGED from [com.facebook.fresco:middleware:2.5.0] /Users/imac/.gradle/caches/transforms-3/2bd3d214b93dcf428cfd42cc8814b2ed/transformed/jetified-middleware-2.5.0/AndroidManifest.xml:5:5-7:41
MERGED from [com.facebook.fresco:ui-common:2.5.0] /Users/imac/.gradle/caches/transforms-3/78eba43129e0d31bec1d131435c69dcf/transformed/jetified-ui-common-2.5.0/AndroidManifest.xml:5:5-7:41
MERGED from [com.facebook.fresco:ui-common:2.5.0] /Users/imac/.gradle/caches/transforms-3/78eba43129e0d31bec1d131435c69dcf/transformed/jetified-ui-common-2.5.0/AndroidManifest.xml:5:5-7:41
MERGED from [com.facebook.fresco:soloader:2.5.0] /Users/imac/.gradle/caches/transforms-3/d6d259317e4a56b55ba587f613fb48a2/transformed/jetified-soloader-2.5.0/AndroidManifest.xml:5:5-7:41
MERGED from [com.facebook.fresco:soloader:2.5.0] /Users/imac/.gradle/caches/transforms-3/d6d259317e4a56b55ba587f613fb48a2/transformed/jetified-soloader-2.5.0/AndroidManifest.xml:5:5-7:41
MERGED from [com.facebook.soloader:soloader:0.10.1] /Users/imac/.gradle/caches/transforms-3/4c346baed8905fc786ccf697aebc99f4/transformed/jetified-soloader-0.10.1/AndroidManifest.xml:7:5-9:41
MERGED from [com.facebook.soloader:soloader:0.10.1] /Users/imac/.gradle/caches/transforms-3/4c346baed8905fc786ccf697aebc99f4/transformed/jetified-soloader-0.10.1/AndroidManifest.xml:7:5-9:41
MERGED from [androidx.appcompat:appcompat-resources:1.3.1] /Users/imac/.gradle/caches/transforms-3/04b8000f856b52eb395ccd673fcb9e95/transformed/jetified-appcompat-resources-1.3.1/AndroidManifest.xml:20:5-22:41
MERGED from [androidx.appcompat:appcompat-resources:1.3.1] /Users/imac/.gradle/caches/transforms-3/04b8000f856b52eb395ccd673fcb9e95/transformed/jetified-appcompat-resources-1.3.1/AndroidManifest.xml:20:5-22:41
MERGED from [androidx.vectordrawable:vectordrawable-animated:1.1.0] /Users/imac/.gradle/caches/transforms-3/57e3d46cd409853c916c88a2c3ae94fd/transformed/vectordrawable-animated-1.1.0/AndroidManifest.xml:20:5-22:41
MERGED from [androidx.vectordrawable:vectordrawable-animated:1.1.0] /Users/imac/.gradle/caches/transforms-3/57e3d46cd409853c916c88a2c3ae94fd/transformed/vectordrawable-animated-1.1.0/AndroidManifest.xml:20:5-22:41
MERGED from [androidx.interpolator:interpolator:1.0.0] /Users/imac/.gradle/caches/transforms-3/db0f9dfc2cb9e58d20874cad38a46146/transformed/interpolator-1.0.0/AndroidManifest.xml:20:5-44
MERGED from [androidx.interpolator:interpolator:1.0.0] /Users/imac/.gradle/caches/transforms-3/db0f9dfc2cb9e58d20874cad38a46146/transformed/interpolator-1.0.0/AndroidManifest.xml:20:5-44
MERGED from [androidx.core:core-ktx:1.6.0] /Users/imac/.gradle/caches/transforms-3/865ea46617bc82e3a12adea34a9680b5/transformed/jetified-core-ktx-1.6.0/AndroidManifest.xml:5:5-7:41
MERGED from [androidx.core:core-ktx:1.6.0] /Users/imac/.gradle/caches/transforms-3/865ea46617bc82e3a12adea34a9680b5/transformed/jetified-core-ktx-1.6.0/AndroidManifest.xml:5:5-7:41
MERGED from [androidx.coordinatorlayout:coordinatorlayout:1.1.0] /Users/imac/.gradle/caches/transforms-3/530e90c3ee142f7f959c69298c7c5ded/transformed/coordinatorlayout-1.1.0/AndroidManifest.xml:20:5-22:41
MERGED from [androidx.coordinatorlayout:coordinatorlayout:1.1.0] /Users/imac/.gradle/caches/transforms-3/530e90c3ee142f7f959c69298c7c5ded/transformed/coordinatorlayout-1.1.0/AndroidManifest.xml:20:5-22:41
MERGED from [com.razorpay:checkout:1.6.18] /Users/imac/.gradle/caches/transforms-3/63a66ba671f10b342b82b5ae71175985/transformed/jetified-checkout-1.6.18/AndroidManifest.xml:5:5-7:41
MERGED from [com.razorpay:checkout:1.6.18] /Users/imac/.gradle/caches/transforms-3/63a66ba671f10b342b82b5ae71175985/transformed/jetified-checkout-1.6.18/AndroidManifest.xml:5:5-7:41
MERGED from [com.google.android.gms:play-services-auth:17.0.0] /Users/imac/.gradle/caches/transforms-3/04d67f04167f9bd7d5a7eb0914da6b2b/transformed/jetified-play-services-auth-17.0.0/AndroidManifest.xml:20:5-44
MERGED from [com.google.android.gms:play-services-auth:17.0.0] /Users/imac/.gradle/caches/transforms-3/04d67f04167f9bd7d5a7eb0914da6b2b/transformed/jetified-play-services-auth-17.0.0/AndroidManifest.xml:20:5-44
MERGED from [com.google.android.gms:play-services-wallet:18.1.3] /Users/imac/.gradle/caches/transforms-3/16571830b907be46e4b85f32ed065420/transformed/jetified-play-services-wallet-18.1.3/AndroidManifest.xml:20:5-44
MERGED from [com.google.android.gms:play-services-wallet:18.1.3] /Users/imac/.gradle/caches/transforms-3/16571830b907be46e4b85f32ed065420/transformed/jetified-play-services-wallet-18.1.3/AndroidManifest.xml:20:5-44
MERGED from [androidx.viewpager2:viewpager2:1.0.0] /Users/imac/.gradle/caches/transforms-3/a19e52b53eb437c1a1e2beb909f23bc9/transformed/jetified-viewpager2-1.0.0/AndroidManifest.xml:20:5-22:41
MERGED from [androidx.viewpager2:viewpager2:1.0.0] /Users/imac/.gradle/caches/transforms-3/a19e52b53eb437c1a1e2beb909f23bc9/transformed/jetified-viewpager2-1.0.0/AndroidManifest.xml:20:5-22:41
MERGED from [com.google.android.gms:play-services-auth-api-phone:17.1.0] /Users/imac/.gradle/caches/transforms-3/b60f7936acbcf9285b08b08eab784897/transformed/jetified-play-services-auth-api-phone-17.1.0/AndroidManifest.xml:5:5-44
MERGED from [com.google.android.gms:play-services-auth-api-phone:17.1.0] /Users/imac/.gradle/caches/transforms-3/b60f7936acbcf9285b08b08eab784897/transformed/jetified-play-services-auth-api-phone-17.1.0/AndroidManifest.xml:5:5-44
MERGED from [com.google.android.gms:play-services-auth-base:17.0.0] /Users/imac/.gradle/caches/transforms-3/a43fa50b71b722e559f9860089dd8e87/transformed/jetified-play-services-auth-base-17.0.0/AndroidManifest.xml:5:5-44
MERGED from [com.google.android.gms:play-services-auth-base:17.0.0] /Users/imac/.gradle/caches/transforms-3/a43fa50b71b722e559f9860089dd8e87/transformed/jetified-play-services-auth-base-17.0.0/AndroidManifest.xml:5:5-44
MERGED from [com.google.android.gms:play-services-identity:17.0.0] /Users/imac/.gradle/caches/transforms-3/d8ddb4461f790b207d9e0de977e1a532/transformed/jetified-play-services-identity-17.0.0/AndroidManifest.xml:20:5-44
MERGED from [com.google.android.gms:play-services-identity:17.0.0] /Users/imac/.gradle/caches/transforms-3/d8ddb4461f790b207d9e0de977e1a532/transformed/jetified-play-services-identity-17.0.0/AndroidManifest.xml:20:5-44
MERGED from [com.google.android.gms:play-services-maps:17.0.0] /Users/imac/.gradle/caches/transforms-3/6821bfc07eef432b0f26a0acd5357f0f/transformed/jetified-play-services-maps-17.0.0/AndroidManifest.xml:20:5-44
MERGED from [com.google.android.gms:play-services-maps:17.0.0] /Users/imac/.gradle/caches/transforms-3/6821bfc07eef432b0f26a0acd5357f0f/transformed/jetified-play-services-maps-17.0.0/AndroidManifest.xml:20:5-44
MERGED from [com.google.android.gms:play-services-base:17.5.0] /Users/imac/.gradle/caches/transforms-3/92684ae91838cbd2bec86680f9c91f77/transformed/jetified-play-services-base-17.5.0/AndroidManifest.xml:20:5-44
MERGED from [com.google.android.gms:play-services-base:17.5.0] /Users/imac/.gradle/caches/transforms-3/92684ae91838cbd2bec86680f9c91f77/transformed/jetified-play-services-base-17.5.0/AndroidManifest.xml:20:5-44
MERGED from [com.google.android.gms:play-services-tasks:17.2.1] /Users/imac/.gradle/caches/transforms-3/c40538da6b092d65991aa98428bae53c/transformed/jetified-play-services-tasks-17.2.1/AndroidManifest.xml:5:5-44
MERGED from [com.google.android.gms:play-services-tasks:17.2.1] /Users/imac/.gradle/caches/transforms-3/c40538da6b092d65991aa98428bae53c/transformed/jetified-play-services-tasks-17.2.1/AndroidManifest.xml:5:5-44
MERGED from [com.google.android.gms:play-services-basement:17.6.0] /Users/imac/.gradle/caches/transforms-3/060dff7644d80534b68ae20379930fc6/transformed/jetified-play-services-basement-17.6.0/AndroidManifest.xml:20:5-44
MERGED from [com.google.android.gms:play-services-basement:17.6.0] /Users/imac/.gradle/caches/transforms-3/060dff7644d80534b68ae20379930fc6/transformed/jetified-play-services-basement-17.6.0/AndroidManifest.xml:20:5-44
MERGED from [androidx.fragment:fragment:1.3.6] /Users/imac/.gradle/caches/transforms-3/6002c4bad2084e99b3580f0d613eae70/transformed/fragment-1.3.6/AndroidManifest.xml:20:5-22:41
MERGED from [androidx.fragment:fragment:1.3.6] /Users/imac/.gradle/caches/transforms-3/6002c4bad2084e99b3580f0d613eae70/transformed/fragment-1.3.6/AndroidManifest.xml:20:5-22:41
MERGED from [androidx.cursoradapter:cursoradapter:1.0.0] /Users/imac/.gradle/caches/transforms-3/0be91775d24cf865decfe7ed4d5eda66/transformed/cursoradapter-1.0.0/AndroidManifest.xml:20:5-44
MERGED from [androidx.cursoradapter:cursoradapter:1.0.0] /Users/imac/.gradle/caches/transforms-3/0be91775d24cf865decfe7ed4d5eda66/transformed/cursoradapter-1.0.0/AndroidManifest.xml:20:5-44
MERGED from [androidx.activity:activity:1.2.4] /Users/imac/.gradle/caches/transforms-3/1bc3079e4f53d6fe6635bc7549c1b06e/transformed/jetified-activity-1.2.4/AndroidManifest.xml:20:5-22:41
MERGED from [androidx.activity:activity:1.2.4] /Users/imac/.gradle/caches/transforms-3/1bc3079e4f53d6fe6635bc7549c1b06e/transformed/jetified-activity-1.2.4/AndroidManifest.xml:20:5-22:41
MERGED from [androidx.drawerlayout:drawerlayout:1.0.0] /Users/imac/.gradle/caches/transforms-3/6fa7b39b5df705c5310dc54c9428ddb2/transformed/drawerlayout-1.0.0/AndroidManifest.xml:20:5-44
MERGED from [androidx.drawerlayout:drawerlayout:1.0.0] /Users/imac/.gradle/caches/transforms-3/6fa7b39b5df705c5310dc54c9428ddb2/transformed/drawerlayout-1.0.0/AndroidManifest.xml:20:5-44
MERGED from [androidx.lifecycle:lifecycle-viewmodel-savedstate:2.3.1] /Users/imac/.gradle/caches/transforms-3/5b491d77bde65b71a6cae58aa9211dcf/transformed/jetified-lifecycle-viewmodel-savedstate-2.3.1/AndroidManifest.xml:20:5-22:41
MERGED from [androidx.lifecycle:lifecycle-viewmodel-savedstate:2.3.1] /Users/imac/.gradle/caches/transforms-3/5b491d77bde65b71a6cae58aa9211dcf/transformed/jetified-lifecycle-viewmodel-savedstate-2.3.1/AndroidManifest.xml:20:5-22:41
MERGED from [androidx.savedstate:savedstate:1.1.0] /Users/imac/.gradle/caches/transforms-3/ecf84c0383f3135c8315e19df5cad97b/transformed/jetified-savedstate-1.1.0/AndroidManifest.xml:20:5-22:41
MERGED from [androidx.savedstate:savedstate:1.1.0] /Users/imac/.gradle/caches/transforms-3/ecf84c0383f3135c8315e19df5cad97b/transformed/jetified-savedstate-1.1.0/AndroidManifest.xml:20:5-22:41
MERGED from [androidx.databinding:databinding-adapters:4.2.2] /Users/imac/.gradle/caches/transforms-3/0ec9ae79e87bb50ecc9d1f22b72d8423/transformed/databinding-adapters-4.2.2/AndroidManifest.xml:20:5-44
MERGED from [androidx.databinding:databinding-adapters:4.2.2] /Users/imac/.gradle/caches/transforms-3/0ec9ae79e87bb50ecc9d1f22b72d8423/transformed/databinding-adapters-4.2.2/AndroidManifest.xml:20:5-44
MERGED from [androidx.databinding:databinding-runtime:4.2.2] /Users/imac/.gradle/caches/transforms-3/9c07b88e0eb319c189b93edbba1f593b/transformed/databinding-runtime-4.2.2/AndroidManifest.xml:20:5-44
MERGED from [androidx.databinding:databinding-runtime:4.2.2] /Users/imac/.gradle/caches/transforms-3/9c07b88e0eb319c189b93edbba1f593b/transformed/databinding-runtime-4.2.2/AndroidManifest.xml:20:5-44
MERGED from [androidx.media:media:1.0.0] /Users/imac/.gradle/caches/transforms-3/945f679d5066ec5cea4c418de5c0d6c7/transformed/media-1.0.0/AndroidManifest.xml:20:5-44
MERGED from [androidx.media:media:1.0.0] /Users/imac/.gradle/caches/transforms-3/945f679d5066ec5cea4c418de5c0d6c7/transformed/media-1.0.0/AndroidManifest.xml:20:5-44
MERGED from [androidx.legacy:legacy-support-core-utils:1.0.0] /Users/imac/.gradle/caches/transforms-3/d0c159f2eff86f9dd9484771b447df49/transformed/legacy-support-core-utils-1.0.0/AndroidManifest.xml:20:5-44
MERGED from [androidx.legacy:legacy-support-core-utils:1.0.0] /Users/imac/.gradle/caches/transforms-3/d0c159f2eff86f9dd9484771b447df49/transformed/legacy-support-core-utils-1.0.0/AndroidManifest.xml:20:5-44
MERGED from [androidx.viewpager:viewpager:1.0.0] /Users/imac/.gradle/caches/transforms-3/09064782b8f9c0d066bcd2a3c8b04255/transformed/viewpager-1.0.0/AndroidManifest.xml:20:5-44
MERGED from [androidx.viewpager:viewpager:1.0.0] /Users/imac/.gradle/caches/transforms-3/09064782b8f9c0d066bcd2a3c8b04255/transformed/viewpager-1.0.0/AndroidManifest.xml:20:5-44
MERGED from [androidx.slidingpanelayout:slidingpanelayout:1.0.0] /Users/imac/.gradle/caches/transforms-3/b133b9404a8c5da5d70c49b2ea9a8235/transformed/slidingpanelayout-1.0.0/AndroidManifest.xml:20:5-44
MERGED from [androidx.slidingpanelayout:slidingpanelayout:1.0.0] /Users/imac/.gradle/caches/transforms-3/b133b9404a8c5da5d70c49b2ea9a8235/transformed/slidingpanelayout-1.0.0/AndroidManifest.xml:20:5-44
MERGED from [androidx.recyclerview:recyclerview:1.1.0] /Users/imac/.gradle/caches/transforms-3/e1b8018dc60702fe7502f85988cad1c2/transformed/recyclerview-1.1.0/AndroidManifest.xml:20:5-22:41
MERGED from [androidx.recyclerview:recyclerview:1.1.0] /Users/imac/.gradle/caches/transforms-3/e1b8018dc60702fe7502f85988cad1c2/transformed/recyclerview-1.1.0/AndroidManifest.xml:20:5-22:41
MERGED from [androidx.customview:customview:1.0.0] /Users/imac/.gradle/caches/transforms-3/52776be0cd260004f7c3543526e82dde/transformed/customview-1.0.0/AndroidManifest.xml:20:5-44
MERGED from [androidx.customview:customview:1.0.0] /Users/imac/.gradle/caches/transforms-3/52776be0cd260004f7c3543526e82dde/transformed/customview-1.0.0/AndroidManifest.xml:20:5-44
MERGED from [androidx.transition:transition:1.2.0] /Users/imac/.gradle/caches/transforms-3/40ca51d2249b4d506bc1f8236223e39e/transformed/transition-1.2.0/AndroidManifest.xml:20:5-22:41
MERGED from [androidx.transition:transition:1.2.0] /Users/imac/.gradle/caches/transforms-3/40ca51d2249b4d506bc1f8236223e39e/transformed/transition-1.2.0/AndroidManifest.xml:20:5-22:41
MERGED from [androidx.vectordrawable:vectordrawable:1.1.0] /Users/imac/.gradle/caches/transforms-3/bd931bf16554ef3a5f9f30ddc05589c6/transformed/vectordrawable-1.1.0/AndroidManifest.xml:20:5-22:41
MERGED from [androidx.vectordrawable:vectordrawable:1.1.0] /Users/imac/.gradle/caches/transforms-3/bd931bf16554ef3a5f9f30ddc05589c6/transformed/vectordrawable-1.1.0/AndroidManifest.xml:20:5-22:41
MERGED from [androidx.loader:loader:1.0.0] /Users/imac/.gradle/caches/transforms-3/60d60c30d7e19309c125baad97767572/transformed/loader-1.0.0/AndroidManifest.xml:20:5-44
MERGED from [androidx.loader:loader:1.0.0] /Users/imac/.gradle/caches/transforms-3/60d60c30d7e19309c125baad97767572/transformed/loader-1.0.0/AndroidManifest.xml:20:5-44
MERGED from [androidx.asynclayoutinflater:asynclayoutinflater:1.0.0] /Users/imac/.gradle/caches/transforms-3/e78fd681fe13beced154580660d7b18a/transformed/asynclayoutinflater-1.0.0/AndroidManifest.xml:20:5-44
MERGED from [androidx.asynclayoutinflater:asynclayoutinflater:1.0.0] /Users/imac/.gradle/caches/transforms-3/e78fd681fe13beced154580660d7b18a/transformed/asynclayoutinflater-1.0.0/AndroidManifest.xml:20:5-44
MERGED from [androidx.core:core:1.6.0] /Users/imac/.gradle/caches/transforms-3/5efa136d6b7a2c594211658eacead3c1/transformed/core-1.6.0/AndroidManifest.xml:20:5-22:41
MERGED from [androidx.core:core:1.6.0] /Users/imac/.gradle/caches/transforms-3/5efa136d6b7a2c594211658eacead3c1/transformed/core-1.6.0/AndroidManifest.xml:20:5-22:41
MERGED from [androidx.lifecycle:lifecycle-runtime:2.3.1] /Users/imac/.gradle/caches/transforms-3/95eef8d21bb330bbf58c8c1672988eae/transformed/lifecycle-runtime-2.3.1/AndroidManifest.xml:20:5-22:41
MERGED from [androidx.lifecycle:lifecycle-runtime:2.3.1] /Users/imac/.gradle/caches/transforms-3/95eef8d21bb330bbf58c8c1672988eae/transformed/lifecycle-runtime-2.3.1/AndroidManifest.xml:20:5-22:41
MERGED from [androidx.lifecycle:lifecycle-viewmodel:2.3.1] /Users/imac/.gradle/caches/transforms-3/19dbf037054f995da5dedc6be291ab0b/transformed/lifecycle-viewmodel-2.3.1/AndroidManifest.xml:20:5-22:41
MERGED from [androidx.lifecycle:lifecycle-viewmodel:2.3.1] /Users/imac/.gradle/caches/transforms-3/19dbf037054f995da5dedc6be291ab0b/transformed/lifecycle-viewmodel-2.3.1/AndroidManifest.xml:20:5-22:41
MERGED from [androidx.cardview:cardview:1.0.0] /Users/imac/.gradle/caches/transforms-3/0e82c8f39b666fb3af71c210912c7fc0/transformed/cardview-1.0.0/AndroidManifest.xml:20:5-44
MERGED from [androidx.cardview:cardview:1.0.0] /Users/imac/.gradle/caches/transforms-3/0e82c8f39b666fb3af71c210912c7fc0/transformed/cardview-1.0.0/AndroidManifest.xml:20:5-44
MERGED from [androidx.versionedparcelable:versionedparcelable:1.1.1] /Users/imac/.gradle/caches/transforms-3/233eab6c731cb1ce714d2d0256cc6f18/transformed/versionedparcelable-1.1.1/AndroidManifest.xml:20:5-22:41
MERGED from [androidx.versionedparcelable:versionedparcelable:1.1.1] /Users/imac/.gradle/caches/transforms-3/233eab6c731cb1ce714d2d0256cc6f18/transformed/versionedparcelable-1.1.1/AndroidManifest.xml:20:5-22:41
MERGED from [androidx.tracing:tracing:1.0.0] /Users/imac/.gradle/caches/transforms-3/2b0f8c1393b8d656dc1b4fd4cb42a675/transformed/jetified-tracing-1.0.0/AndroidManifest.xml:20:5-22:41
MERGED from [androidx.tracing:tracing:1.0.0] /Users/imac/.gradle/caches/transforms-3/2b0f8c1393b8d656dc1b4fd4cb42a675/transformed/jetified-tracing-1.0.0/AndroidManifest.xml:20:5-22:41
MERGED from [androidx.lifecycle:lifecycle-livedata:2.0.0] /Users/imac/.gradle/caches/transforms-3/52571f97fa6c48622e09021afd8f199b/transformed/lifecycle-livedata-2.0.0/AndroidManifest.xml:20:5-44
MERGED from [androidx.lifecycle:lifecycle-livedata:2.0.0] /Users/imac/.gradle/caches/transforms-3/52571f97fa6c48622e09021afd8f199b/transformed/lifecycle-livedata-2.0.0/AndroidManifest.xml:20:5-44
MERGED from [androidx.lifecycle:lifecycle-livedata-core:2.3.1] /Users/imac/.gradle/caches/transforms-3/d17db292503a9dfb32fc2010180b8533/transformed/lifecycle-livedata-core-2.3.1/AndroidManifest.xml:20:5-22:41
MERGED from [androidx.lifecycle:lifecycle-livedata-core:2.3.1] /Users/imac/.gradle/caches/transforms-3/d17db292503a9dfb32fc2010180b8533/transformed/lifecycle-livedata-core-2.3.1/AndroidManifest.xml:20:5-22:41
MERGED from [androidx.arch.core:core-runtime:2.1.0] /Users/imac/.gradle/caches/transforms-3/f9626132104606c8a5a0763d03129850/transformed/core-runtime-2.1.0/AndroidManifest.xml:20:5-22:41
MERGED from [androidx.arch.core:core-runtime:2.1.0] /Users/imac/.gradle/caches/transforms-3/f9626132104606c8a5a0763d03129850/transformed/core-runtime-2.1.0/AndroidManifest.xml:20:5-22:41
MERGED from [androidx.databinding:viewbinding:4.2.2] /Users/imac/.gradle/caches/transforms-3/ae440361190247cf9a53e8f505dc3740/transformed/jetified-viewbinding-4.2.2/AndroidManifest.xml:20:5-44
MERGED from [androidx.databinding:viewbinding:4.2.2] /Users/imac/.gradle/caches/transforms-3/ae440361190247cf9a53e8f505dc3740/transformed/jetified-viewbinding-4.2.2/AndroidManifest.xml:20:5-44
MERGED from [androidx.documentfile:documentfile:1.0.0] /Users/imac/.gradle/caches/transforms-3/43774a1f0f00442e6ac94bdb87895112/transformed/documentfile-1.0.0/AndroidManifest.xml:20:5-44
MERGED from [androidx.documentfile:documentfile:1.0.0] /Users/imac/.gradle/caches/transforms-3/43774a1f0f00442e6ac94bdb87895112/transformed/documentfile-1.0.0/AndroidManifest.xml:20:5-44
MERGED from [androidx.localbroadcastmanager:localbroadcastmanager:1.0.0] /Users/imac/.gradle/caches/transforms-3/207c511f44f601b53084c2139b40be16/transformed/localbroadcastmanager-1.0.0/AndroidManifest.xml:20:5-44
MERGED from [androidx.localbroadcastmanager:localbroadcastmanager:1.0.0] /Users/imac/.gradle/caches/transforms-3/207c511f44f601b53084c2139b40be16/transformed/localbroadcastmanager-1.0.0/AndroidManifest.xml:20:5-44
MERGED from [androidx.print:print:1.0.0] /Users/imac/.gradle/caches/transforms-3/b1dbf150c803dbbe2473340e72042a7f/transformed/print-1.0.0/AndroidManifest.xml:20:5-44
MERGED from [androidx.print:print:1.0.0] /Users/imac/.gradle/caches/transforms-3/b1dbf150c803dbbe2473340e72042a7f/transformed/print-1.0.0/AndroidManifest.xml:20:5-44
MERGED from [com.facebook.fresco:fbcore:2.5.0] /Users/imac/.gradle/caches/transforms-3/80cae4052e041bdf30fb0fa272e54409/transformed/jetified-fbcore-2.5.0/AndroidManifest.xml:5:5-7:41
MERGED from [com.facebook.fresco:fbcore:2.5.0] /Users/imac/.gradle/caches/transforms-3/80cae4052e041bdf30fb0fa272e54409/transformed/jetified-fbcore-2.5.0/AndroidManifest.xml:5:5-7:41
MERGED from [androidx.annotation:annotation-experimental:1.1.0] /Users/imac/.gradle/caches/transforms-3/62f3224d23caee608d6c9bcfb0d84ebd/transformed/jetified-annotation-experimental-1.1.0/AndroidManifest.xml:20:5-22:41
MERGED from [androidx.annotation:annotation-experimental:1.1.0] /Users/imac/.gradle/caches/transforms-3/62f3224d23caee608d6c9bcfb0d84ebd/transformed/jetified-annotation-experimental-1.1.0/AndroidManifest.xml:20:5-22:41
INJECTED from /Volumes/DATA/RUDRA/Projects/ColourPrediction/android/app/src/main/AndroidManifest.xml
INJECTED from /Volumes/DATA/RUDRA/Projects/ColourPrediction/android/app/src/main/AndroidManifest.xml
	android:targetSdkVersion
		INJECTED from /Volumes/DATA/RUDRA/Projects/ColourPrediction/android/app/src/main/AndroidManifest.xml
		ADDED from /Volumes/DATA/RUDRA/Projects/ColourPrediction/android/app/src/main/AndroidManifest.xml
		INJECTED from /Volumes/DATA/RUDRA/Projects/ColourPrediction/android/app/src/main/AndroidManifest.xml
	android:minSdkVersion
		INJECTED from /Volumes/DATA/RUDRA/Projects/ColourPrediction/android/app/src/main/AndroidManifest.xml
		ADDED from /Volumes/DATA/RUDRA/Projects/ColourPrediction/android/app/src/main/AndroidManifest.xml
		INJECTED from /Volumes/DATA/RUDRA/Projects/ColourPrediction/android/app/src/main/AndroidManifest.xml
activity#com.razorpay.CheckoutActivity
ADDED from [:react-native-razorpay] /Volumes/DATA/RUDRA/Projects/ColourPrediction/node_modules/react-native-razorpay/android/build/intermediates/merged_manifest/release/AndroidManifest.xml:10:9-12:86
MERGED from [com.razorpay:checkout:1.6.18] /Users/imac/.gradle/caches/transforms-3/63a66ba671f10b342b82b5ae71175985/transformed/jetified-checkout-1.6.18/AndroidManifest.xml:48:9-60:20
MERGED from [com.razorpay:checkout:1.6.18] /Users/imac/.gradle/caches/transforms-3/63a66ba671f10b342b82b5ae71175985/transformed/jetified-checkout-1.6.18/AndroidManifest.xml:48:9-60:20
	android:exported
		ADDED from [com.razorpay:checkout:1.6.18] /Users/imac/.gradle/caches/transforms-3/63a66ba671f10b342b82b5ae71175985/transformed/jetified-checkout-1.6.18/AndroidManifest.xml:51:13-36
	android:configChanges
		ADDED from [:react-native-razorpay] /Volumes/DATA/RUDRA/Projects/ColourPrediction/node_modules/react-native-razorpay/android/build/intermediates/merged_manifest/release/AndroidManifest.xml:12:13-83
	android:theme
		ADDED from [com.razorpay:checkout:1.6.18] /Users/imac/.gradle/caches/transforms-3/63a66ba671f10b342b82b5ae71175985/transformed/jetified-checkout-1.6.18/AndroidManifest.xml:52:13-49
	android:name
		ADDED from [:react-native-razorpay] /Volumes/DATA/RUDRA/Projects/ColourPrediction/node_modules/react-native-razorpay/android/build/intermediates/merged_manifest/release/AndroidManifest.xml:11:13-57
uses-permission#android.permission.ACCESS_NETWORK_STATE
ADDED from [:react-native-community_netinfo] /Volumes/DATA/RUDRA/Projects/ColourPrediction/node_modules/@react-native-community/netinfo/android/build/intermediates/merged_manifest/release/AndroidManifest.xml:9:5-79
MERGED from [com.paytm.appinvokesdk:appinvokesdk:1.6.8] /Users/imac/.gradle/caches/transforms-3/0d6f573ac135240c0c48cb04ed83fe97/transformed/jetified-appinvokesdk-1.6.8/AndroidManifest.xml:7:5-79
MERGED from [com.paytm.appinvokesdk:appinvokesdk:1.6.8] /Users/imac/.gradle/caches/transforms-3/0d6f573ac135240c0c48cb04ed83fe97/transformed/jetified-appinvokesdk-1.6.8/AndroidManifest.xml:7:5-79
MERGED from [com.paytm.easypay:easypay-appinvoke:1.7.4] /Users/imac/.gradle/caches/transforms-3/5225b3fd76bb4fd2d840692661ef98c2/transformed/jetified-easypay-appinvoke-1.7.4/AndroidManifest.xml:9:5-79
MERGED from [com.paytm.easypay:easypay-appinvoke:1.7.4] /Users/imac/.gradle/caches/transforms-3/5225b3fd76bb4fd2d840692661ef98c2/transformed/jetified-easypay-appinvoke-1.7.4/AndroidManifest.xml:9:5-79
MERGED from [com.google.android.gms:play-services-maps:17.0.0] /Users/imac/.gradle/caches/transforms-3/6821bfc07eef432b0f26a0acd5357f0f/transformed/jetified-play-services-maps-17.0.0/AndroidManifest.xml:23:5-79
MERGED from [com.google.android.gms:play-services-maps:17.0.0] /Users/imac/.gradle/caches/transforms-3/6821bfc07eef432b0f26a0acd5357f0f/transformed/jetified-play-services-maps-17.0.0/AndroidManifest.xml:23:5-79
	android:name
		ADDED from [:react-native-community_netinfo] /Volumes/DATA/RUDRA/Projects/ColourPrediction/node_modules/@react-native-community/netinfo/android/build/intermediates/merged_manifest/release/AndroidManifest.xml:9:22-76
uses-permission#android.permission.ACCESS_WIFI_STATE
ADDED from [:react-native-community_netinfo] /Volumes/DATA/RUDRA/Projects/ColourPrediction/node_modules/@react-native-community/netinfo/android/build/intermediates/merged_manifest/release/AndroidManifest.xml:10:5-76
	android:name
		ADDED from [:react-native-community_netinfo] /Volumes/DATA/RUDRA/Projects/ColourPrediction/node_modules/@react-native-community/netinfo/android/build/intermediates/merged_manifest/release/AndroidManifest.xml:10:22-73
uses-permission#android.permission.WAKE_LOCK
ADDED from [:react-native-background-timer] /Volumes/DATA/RUDRA/Projects/ColourPrediction/node_modules/react-native-background-timer/android/build/intermediates/merged_manifest/release/AndroidManifest.xml:9:5-68
MERGED from [com.paytm.easypay:easypay-appinvoke:1.7.4] /Users/imac/.gradle/caches/transforms-3/5225b3fd76bb4fd2d840692661ef98c2/transformed/jetified-easypay-appinvoke-1.7.4/AndroidManifest.xml:11:5-68
MERGED from [com.paytm.easypay:easypay-appinvoke:1.7.4] /Users/imac/.gradle/caches/transforms-3/5225b3fd76bb4fd2d840692661ef98c2/transformed/jetified-easypay-appinvoke-1.7.4/AndroidManifest.xml:11:5-68
	android:name
		ADDED from [:react-native-background-timer] /Volumes/DATA/RUDRA/Projects/ColourPrediction/node_modules/react-native-background-timer/android/build/intermediates/merged_manifest/release/AndroidManifest.xml:9:22-65
queries
ADDED from [com.paytm.appinvokesdk:appinvokesdk:1.6.8] /Users/imac/.gradle/caches/transforms-3/0d6f573ac135240c0c48cb04ed83fe97/transformed/jetified-appinvokesdk-1.6.8/AndroidManifest.xml:9:5-20:15
MERGED from [com.razorpay:checkout:1.6.18] /Users/imac/.gradle/caches/transforms-3/63a66ba671f10b342b82b5ae71175985/transformed/jetified-checkout-1.6.18/AndroidManifest.xml:11:5-37:15
MERGED from [com.razorpay:checkout:1.6.18] /Users/imac/.gradle/caches/transforms-3/63a66ba671f10b342b82b5ae71175985/transformed/jetified-checkout-1.6.18/AndroidManifest.xml:11:5-37:15
package#com.paytm.pgsdk.TransactionManager.PAYTM_APP_PACKAGE
ADDED from [com.paytm.appinvokesdk:appinvokesdk:1.6.8] /Users/imac/.gradle/caches/transforms-3/0d6f573ac135240c0c48cb04ed83fe97/transformed/jetified-appinvokesdk-1.6.8/AndroidManifest.xml:12:9-88
	android:name
		ADDED from [com.paytm.appinvokesdk:appinvokesdk:1.6.8] /Users/imac/.gradle/caches/transforms-3/0d6f573ac135240c0c48cb04ed83fe97/transformed/jetified-appinvokesdk-1.6.8/AndroidManifest.xml:12:18-85
intent#action:name:android.intent.action.MAIN
ADDED from [com.paytm.appinvokesdk:appinvokesdk:1.6.8] /Users/imac/.gradle/caches/transforms-3/0d6f573ac135240c0c48cb04ed83fe97/transformed/jetified-appinvokesdk-1.6.8/AndroidManifest.xml:17:9-19:18
activity#com.paytm.pgsdk.PaytmPGActivity
ADDED from [com.paytm.appinvokesdk:appinvokesdk:1.6.8] /Users/imac/.gradle/caches/transforms-3/0d6f573ac135240c0c48cb04ed83fe97/transformed/jetified-appinvokesdk-1.6.8/AndroidManifest.xml:23:9-26:66
	android:screenOrientation
		ADDED from [com.paytm.appinvokesdk:appinvokesdk:1.6.8] /Users/imac/.gradle/caches/transforms-3/0d6f573ac135240c0c48cb04ed83fe97/transformed/jetified-appinvokesdk-1.6.8/AndroidManifest.xml:25:13-49
	android:theme
		ADDED from [com.paytm.appinvokesdk:appinvokesdk:1.6.8] /Users/imac/.gradle/caches/transforms-3/0d6f573ac135240c0c48cb04ed83fe97/transformed/jetified-appinvokesdk-1.6.8/AndroidManifest.xml:26:13-63
	android:name
		ADDED from [com.paytm.appinvokesdk:appinvokesdk:1.6.8] /Users/imac/.gradle/caches/transforms-3/0d6f573ac135240c0c48cb04ed83fe97/transformed/jetified-appinvokesdk-1.6.8/AndroidManifest.xml:24:13-59
activity#com.paytm.pgsdk.AioMatchUserActivity
ADDED from [com.paytm.appinvokesdk:appinvokesdk:1.6.8] /Users/imac/.gradle/caches/transforms-3/0d6f573ac135240c0c48cb04ed83fe97/transformed/jetified-appinvokesdk-1.6.8/AndroidManifest.xml:27:9-29:63
	android:theme
		ADDED from [com.paytm.appinvokesdk:appinvokesdk:1.6.8] /Users/imac/.gradle/caches/transforms-3/0d6f573ac135240c0c48cb04ed83fe97/transformed/jetified-appinvokesdk-1.6.8/AndroidManifest.xml:29:13-60
	android:name
		ADDED from [com.paytm.appinvokesdk:appinvokesdk:1.6.8] /Users/imac/.gradle/caches/transforms-3/0d6f573ac135240c0c48cb04ed83fe97/transformed/jetified-appinvokesdk-1.6.8/AndroidManifest.xml:28:13-64
service#com.paytm.pgsdk.IntentServicePostNotification
ADDED from [com.paytm.appinvokesdk:appinvokesdk:1.6.8] /Users/imac/.gradle/caches/transforms-3/0d6f573ac135240c0c48cb04ed83fe97/transformed/jetified-appinvokesdk-1.6.8/AndroidManifest.xml:31:9-33:40
	android:exported
		ADDED from [com.paytm.appinvokesdk:appinvokesdk:1.6.8] /Users/imac/.gradle/caches/transforms-3/0d6f573ac135240c0c48cb04ed83fe97/transformed/jetified-appinvokesdk-1.6.8/AndroidManifest.xml:33:13-37
	android:name
		ADDED from [com.paytm.appinvokesdk:appinvokesdk:1.6.8] /Users/imac/.gradle/caches/transforms-3/0d6f573ac135240c0c48cb04ed83fe97/transformed/jetified-appinvokesdk-1.6.8/AndroidManifest.xml:32:13-73
service#com.paytm.pgsdk.IntentServicePreNotification
ADDED from [com.paytm.appinvokesdk:appinvokesdk:1.6.8] /Users/imac/.gradle/caches/transforms-3/0d6f573ac135240c0c48cb04ed83fe97/transformed/jetified-appinvokesdk-1.6.8/AndroidManifest.xml:34:9-36:40
	android:exported
		ADDED from [com.paytm.appinvokesdk:appinvokesdk:1.6.8] /Users/imac/.gradle/caches/transforms-3/0d6f573ac135240c0c48cb04ed83fe97/transformed/jetified-appinvokesdk-1.6.8/AndroidManifest.xml:36:13-37
	android:name
		ADDED from [com.paytm.appinvokesdk:appinvokesdk:1.6.8] /Users/imac/.gradle/caches/transforms-3/0d6f573ac135240c0c48cb04ed83fe97/transformed/jetified-appinvokesdk-1.6.8/AndroidManifest.xml:35:13-72
uses-permission#android.permission.READ_PHONE_STATE
ADDED from [com.paytm.easypay:easypay-appinvoke:1.7.4] /Users/imac/.gradle/caches/transforms-3/5225b3fd76bb4fd2d840692661ef98c2/transformed/jetified-easypay-appinvoke-1.7.4/AndroidManifest.xml:10:5-75
	android:name
		ADDED from [com.paytm.easypay:easypay-appinvoke:1.7.4] /Users/imac/.gradle/caches/transforms-3/5225b3fd76bb4fd2d840692661ef98c2/transformed/jetified-easypay-appinvoke-1.7.4/AndroidManifest.xml:10:22-72
service#easypay.appinvoke.utils.EasyPayConfigDownloader
ADDED from [com.paytm.easypay:easypay-appinvoke:1.7.4] /Users/imac/.gradle/caches/transforms-3/5225b3fd76bb4fd2d840692661ef98c2/transformed/jetified-easypay-appinvoke-1.7.4/AndroidManifest.xml:14:9-17:72
	android:exported
		ADDED from [com.paytm.easypay:easypay-appinvoke:1.7.4] /Users/imac/.gradle/caches/transforms-3/5225b3fd76bb4fd2d840692661ef98c2/transformed/jetified-easypay-appinvoke-1.7.4/AndroidManifest.xml:16:13-37
	android:permission
		ADDED from [com.paytm.easypay:easypay-appinvoke:1.7.4] /Users/imac/.gradle/caches/transforms-3/5225b3fd76bb4fd2d840692661ef98c2/transformed/jetified-easypay-appinvoke-1.7.4/AndroidManifest.xml:17:13-69
	android:name
		ADDED from [com.paytm.easypay:easypay-appinvoke:1.7.4] /Users/imac/.gradle/caches/transforms-3/5225b3fd76bb4fd2d840692661ef98c2/transformed/jetified-easypay-appinvoke-1.7.4/AndroidManifest.xml:15:13-75
service#easypay.appinvoke.utils.AnalyticsService
ADDED from [com.paytm.easypay:easypay-appinvoke:1.7.4] /Users/imac/.gradle/caches/transforms-3/5225b3fd76bb4fd2d840692661ef98c2/transformed/jetified-easypay-appinvoke-1.7.4/AndroidManifest.xml:18:9-22:72
	android:enabled
		ADDED from [com.paytm.easypay:easypay-appinvoke:1.7.4] /Users/imac/.gradle/caches/transforms-3/5225b3fd76bb4fd2d840692661ef98c2/transformed/jetified-easypay-appinvoke-1.7.4/AndroidManifest.xml:20:13-35
	android:exported
		ADDED from [com.paytm.easypay:easypay-appinvoke:1.7.4] /Users/imac/.gradle/caches/transforms-3/5225b3fd76bb4fd2d840692661ef98c2/transformed/jetified-easypay-appinvoke-1.7.4/AndroidManifest.xml:21:13-37
	android:permission
		ADDED from [com.paytm.easypay:easypay-appinvoke:1.7.4] /Users/imac/.gradle/caches/transforms-3/5225b3fd76bb4fd2d840692661ef98c2/transformed/jetified-easypay-appinvoke-1.7.4/AndroidManifest.xml:22:13-69
	android:name
		ADDED from [com.paytm.easypay:easypay-appinvoke:1.7.4] /Users/imac/.gradle/caches/transforms-3/5225b3fd76bb4fd2d840692661ef98c2/transformed/jetified-easypay-appinvoke-1.7.4/AndroidManifest.xml:19:13-68
activity#easypay.appinvoke.AnalyticsManagerInfoDisplayActivity
ADDED from [com.paytm.easypay:easypay-appinvoke:1.7.4] /Users/imac/.gradle/caches/transforms-3/5225b3fd76bb4fd2d840692661ef98c2/transformed/jetified-easypay-appinvoke-1.7.4/AndroidManifest.xml:24:9-90
	android:name
		ADDED from [com.paytm.easypay:easypay-appinvoke:1.7.4] /Users/imac/.gradle/caches/transforms-3/5225b3fd76bb4fd2d840692661ef98c2/transformed/jetified-easypay-appinvoke-1.7.4/AndroidManifest.xml:24:19-87
intent#action:name:android.intent.action.VIEW+data:mimeType:*/*+data:scheme:*
ADDED from [com.razorpay:checkout:1.6.18] /Users/imac/.gradle/caches/transforms-3/63a66ba671f10b342b82b5ae71175985/transformed/jetified-checkout-1.6.18/AndroidManifest.xml:12:9-18:18
action#android.intent.action.VIEW
ADDED from [com.razorpay:checkout:1.6.18] /Users/imac/.gradle/caches/transforms-3/63a66ba671f10b342b82b5ae71175985/transformed/jetified-checkout-1.6.18/AndroidManifest.xml:13:13-65
	android:name
		ADDED from [com.razorpay:checkout:1.6.18] /Users/imac/.gradle/caches/transforms-3/63a66ba671f10b342b82b5ae71175985/transformed/jetified-checkout-1.6.18/AndroidManifest.xml:13:21-62
data
ADDED from [com.razorpay:checkout:1.6.18] /Users/imac/.gradle/caches/transforms-3/63a66ba671f10b342b82b5ae71175985/transformed/jetified-checkout-1.6.18/AndroidManifest.xml:15:13-17:38
	android:scheme
		ADDED from [com.razorpay:checkout:1.6.18] /Users/imac/.gradle/caches/transforms-3/63a66ba671f10b342b82b5ae71175985/transformed/jetified-checkout-1.6.18/AndroidManifest.xml:17:17-35
	android:mimeType
		ADDED from [com.razorpay:checkout:1.6.18] /Users/imac/.gradle/caches/transforms-3/63a66ba671f10b342b82b5ae71175985/transformed/jetified-checkout-1.6.18/AndroidManifest.xml:16:17-39
intent#action:name:android.intent.action.VIEW+category:name:android.intent.category.BROWSABLE+data:host:pay+data:mimeType:*/*+data:scheme:upi
ADDED from [com.razorpay:checkout:1.6.18] /Users/imac/.gradle/caches/transforms-3/63a66ba671f10b342b82b5ae71175985/transformed/jetified-checkout-1.6.18/AndroidManifest.xml:19:9-28:18
category#android.intent.category.BROWSABLE
ADDED from [com.razorpay:checkout:1.6.18] /Users/imac/.gradle/caches/transforms-3/63a66ba671f10b342b82b5ae71175985/transformed/jetified-checkout-1.6.18/AndroidManifest.xml:22:13-74
	android:name
		ADDED from [com.razorpay:checkout:1.6.18] /Users/imac/.gradle/caches/transforms-3/63a66ba671f10b342b82b5ae71175985/transformed/jetified-checkout-1.6.18/AndroidManifest.xml:22:23-71
intent#action:name:android.intent.action.SEND+data:mimeType:*/*
ADDED from [com.razorpay:checkout:1.6.18] /Users/imac/.gradle/caches/transforms-3/63a66ba671f10b342b82b5ae71175985/transformed/jetified-checkout-1.6.18/AndroidManifest.xml:32:9-36:18
action#android.intent.action.SEND
ADDED from [com.razorpay:checkout:1.6.18] /Users/imac/.gradle/caches/transforms-3/63a66ba671f10b342b82b5ae71175985/transformed/jetified-checkout-1.6.18/AndroidManifest.xml:33:13-65
	android:name
		ADDED from [com.razorpay:checkout:1.6.18] /Users/imac/.gradle/caches/transforms-3/63a66ba671f10b342b82b5ae71175985/transformed/jetified-checkout-1.6.18/AndroidManifest.xml:33:21-62
receiver#com.razorpay.RzpTokenReceiver
ADDED from [com.razorpay:checkout:1.6.18] /Users/imac/.gradle/caches/transforms-3/63a66ba671f10b342b82b5ae71175985/transformed/jetified-checkout-1.6.18/AndroidManifest.xml:40:9-46:20
	android:exported
		ADDED from [com.razorpay:checkout:1.6.18] /Users/imac/.gradle/caches/transforms-3/63a66ba671f10b342b82b5ae71175985/transformed/jetified-checkout-1.6.18/AndroidManifest.xml:42:13-37
	android:name
		ADDED from [com.razorpay:checkout:1.6.18] /Users/imac/.gradle/caches/transforms-3/63a66ba671f10b342b82b5ae71175985/transformed/jetified-checkout-1.6.18/AndroidManifest.xml:41:13-57
intent-filter#action:name:rzp.device_token.share
ADDED from [com.razorpay:checkout:1.6.18] /Users/imac/.gradle/caches/transforms-3/63a66ba671f10b342b82b5ae71175985/transformed/jetified-checkout-1.6.18/AndroidManifest.xml:43:13-45:29
action#rzp.device_token.share
ADDED from [com.razorpay:checkout:1.6.18] /Users/imac/.gradle/caches/transforms-3/63a66ba671f10b342b82b5ae71175985/transformed/jetified-checkout-1.6.18/AndroidManifest.xml:44:17-65
	android:name
		ADDED from [com.razorpay:checkout:1.6.18] /Users/imac/.gradle/caches/transforms-3/63a66ba671f10b342b82b5ae71175985/transformed/jetified-checkout-1.6.18/AndroidManifest.xml:44:25-62
intent-filter#action:name:android.intent.action.MAIN+data:host:rzp.io+data:scheme:io.rzp
ADDED from [com.razorpay:checkout:1.6.18] /Users/imac/.gradle/caches/transforms-3/63a66ba671f10b342b82b5ae71175985/transformed/jetified-checkout-1.6.18/AndroidManifest.xml:53:13-59:29
meta-data#com.razorpay.plugin.googlepay_all
ADDED from [com.razorpay:checkout:1.6.18] /Users/imac/.gradle/caches/transforms-3/63a66ba671f10b342b82b5ae71175985/transformed/jetified-checkout-1.6.18/AndroidManifest.xml:62:9-64:58
	android:value
		ADDED from [com.razorpay:checkout:1.6.18] /Users/imac/.gradle/caches/transforms-3/63a66ba671f10b342b82b5ae71175985/transformed/jetified-checkout-1.6.18/AndroidManifest.xml:64:13-55
	android:name
		ADDED from [com.razorpay:checkout:1.6.18] /Users/imac/.gradle/caches/transforms-3/63a66ba671f10b342b82b5ae71175985/transformed/jetified-checkout-1.6.18/AndroidManifest.xml:63:13-61
activity#com.google.android.gms.auth.api.signin.internal.SignInHubActivity
ADDED from [com.google.android.gms:play-services-auth:17.0.0] /Users/imac/.gradle/caches/transforms-3/04d67f04167f9bd7d5a7eb0914da6b2b/transformed/jetified-play-services-auth-17.0.0/AndroidManifest.xml:23:9-27:75
	android:excludeFromRecents
		ADDED from [com.google.android.gms:play-services-auth:17.0.0] /Users/imac/.gradle/caches/transforms-3/04d67f04167f9bd7d5a7eb0914da6b2b/transformed/jetified-play-services-auth-17.0.0/AndroidManifest.xml:25:13-46
	android:exported
		ADDED from [com.google.android.gms:play-services-auth:17.0.0] /Users/imac/.gradle/caches/transforms-3/04d67f04167f9bd7d5a7eb0914da6b2b/transformed/jetified-play-services-auth-17.0.0/AndroidManifest.xml:26:13-37
	android:theme
		ADDED from [com.google.android.gms:play-services-auth:17.0.0] /Users/imac/.gradle/caches/transforms-3/04d67f04167f9bd7d5a7eb0914da6b2b/transformed/jetified-play-services-auth-17.0.0/AndroidManifest.xml:27:13-72
	android:name
		ADDED from [com.google.android.gms:play-services-auth:17.0.0] /Users/imac/.gradle/caches/transforms-3/04d67f04167f9bd7d5a7eb0914da6b2b/transformed/jetified-play-services-auth-17.0.0/AndroidManifest.xml:24:13-93
service#com.google.android.gms.auth.api.signin.RevocationBoundService
ADDED from [com.google.android.gms:play-services-auth:17.0.0] /Users/imac/.gradle/caches/transforms-3/04d67f04167f9bd7d5a7eb0914da6b2b/transformed/jetified-play-services-auth-17.0.0/AndroidManifest.xml:33:9-36:110
	android:exported
		ADDED from [com.google.android.gms:play-services-auth:17.0.0] /Users/imac/.gradle/caches/transforms-3/04d67f04167f9bd7d5a7eb0914da6b2b/transformed/jetified-play-services-auth-17.0.0/AndroidManifest.xml:35:13-36
	android:permission
		ADDED from [com.google.android.gms:play-services-auth:17.0.0] /Users/imac/.gradle/caches/transforms-3/04d67f04167f9bd7d5a7eb0914da6b2b/transformed/jetified-play-services-auth-17.0.0/AndroidManifest.xml:36:13-107
	android:name
		ADDED from [com.google.android.gms:play-services-auth:17.0.0] /Users/imac/.gradle/caches/transforms-3/04d67f04167f9bd7d5a7eb0914da6b2b/transformed/jetified-play-services-auth-17.0.0/AndroidManifest.xml:34:13-89
uses-feature#0x00020000
ADDED from [com.google.android.gms:play-services-maps:17.0.0] /Users/imac/.gradle/caches/transforms-3/6821bfc07eef432b0f26a0acd5357f0f/transformed/jetified-play-services-maps-17.0.0/AndroidManifest.xml:26:5-28:35
	android:glEsVersion
		ADDED from [com.google.android.gms:play-services-maps:17.0.0] /Users/imac/.gradle/caches/transforms-3/6821bfc07eef432b0f26a0acd5357f0f/transformed/jetified-play-services-maps-17.0.0/AndroidManifest.xml:27:9-41
	android:required
		ADDED from [com.google.android.gms:play-services-maps:17.0.0] /Users/imac/.gradle/caches/transforms-3/6821bfc07eef432b0f26a0acd5357f0f/transformed/jetified-play-services-maps-17.0.0/AndroidManifest.xml:28:9-32
uses-library#org.apache.http.legacy
ADDED from [com.google.android.gms:play-services-maps:17.0.0] /Users/imac/.gradle/caches/transforms-3/6821bfc07eef432b0f26a0acd5357f0f/transformed/jetified-play-services-maps-17.0.0/AndroidManifest.xml:33:9-35:40
	android:required
		ADDED from [com.google.android.gms:play-services-maps:17.0.0] /Users/imac/.gradle/caches/transforms-3/6821bfc07eef432b0f26a0acd5357f0f/transformed/jetified-play-services-maps-17.0.0/AndroidManifest.xml:35:13-37
	android:name
		ADDED from [com.google.android.gms:play-services-maps:17.0.0] /Users/imac/.gradle/caches/transforms-3/6821bfc07eef432b0f26a0acd5357f0f/transformed/jetified-play-services-maps-17.0.0/AndroidManifest.xml:34:13-50
activity#com.google.android.gms.common.api.GoogleApiActivity
ADDED from [com.google.android.gms:play-services-base:17.5.0] /Users/imac/.gradle/caches/transforms-3/92684ae91838cbd2bec86680f9c91f77/transformed/jetified-play-services-base-17.5.0/AndroidManifest.xml:23:9-26:75
	android:exported
		ADDED from [com.google.android.gms:play-services-base:17.5.0] /Users/imac/.gradle/caches/transforms-3/92684ae91838cbd2bec86680f9c91f77/transformed/jetified-play-services-base-17.5.0/AndroidManifest.xml:25:13-37
	android:theme
		ADDED from [com.google.android.gms:play-services-base:17.5.0] /Users/imac/.gradle/caches/transforms-3/92684ae91838cbd2bec86680f9c91f77/transformed/jetified-play-services-base-17.5.0/AndroidManifest.xml:26:13-72
	android:name
		ADDED from [com.google.android.gms:play-services-base:17.5.0] /Users/imac/.gradle/caches/transforms-3/92684ae91838cbd2bec86680f9c91f77/transformed/jetified-play-services-base-17.5.0/AndroidManifest.xml:24:13-79
meta-data#com.google.android.gms.version
ADDED from [com.google.android.gms:play-services-basement:17.6.0] /Users/imac/.gradle/caches/transforms-3/060dff7644d80534b68ae20379930fc6/transformed/jetified-play-services-basement-17.6.0/AndroidManifest.xml:23:9-25:69
	android:value
		ADDED from [com.google.android.gms:play-services-basement:17.6.0] /Users/imac/.gradle/caches/transforms-3/060dff7644d80534b68ae20379930fc6/transformed/jetified-play-services-basement-17.6.0/AndroidManifest.xml:25:13-66
	android:name
		ADDED from [com.google.android.gms:play-services-basement:17.6.0] /Users/imac/.gradle/caches/transforms-3/060dff7644d80534b68ae20379930fc6/transformed/jetified-play-services-basement-17.6.0/AndroidManifest.xml:24:13-58
