<svg width="27" height="18" viewBox="0 0 27 18" fill="none" xmlns="http://www.w3.org/2000/svg">
<path fill-rule="evenodd" clip-rule="evenodd" d="M18.8114 17.0895C23.3338 17.0895 26.9999 13.3808 26.9999 8.80592C26.9999 4.23102 23.3338 0.522339 18.8114 0.522339C16.7846 0.522339 14.9299 1.26723 13.5 2.50116C12.0701 1.26724 10.2153 0.522351 8.18852 0.522351C3.66613 0.522351 0 4.23104 0 8.80593C0 13.3808 3.66613 17.0895 8.18852 17.0895C10.2153 17.0895 12.0701 16.3446 13.5 15.1107C14.9299 16.3446 16.7847 17.0895 18.8114 17.0895Z" fill="#ED0006"/>
<path fill-rule="evenodd" clip-rule="evenodd" d="M13.5 15.1107C15.2607 13.5913 16.3771 11.3305 16.3771 8.80592C16.3771 6.28133 15.2607 4.02052 13.5 2.50115C14.9299 1.26723 16.7847 0.522339 18.8115 0.522339C23.3338 0.522339 27 4.23102 27 8.80592C27 13.3808 23.3338 17.0895 18.8115 17.0895C16.7847 17.0895 14.9299 16.3446 13.5 15.1107Z" fill="#F9A000"/>
<path fill-rule="evenodd" clip-rule="evenodd" d="M13.5 15.1106C15.2607 13.5913 16.377 11.3305 16.377 8.80592C16.377 6.28137 15.2607 4.02058 13.5 2.50122C11.7394 4.02058 10.623 6.28137 10.623 8.80592C10.623 11.3305 11.7394 13.5913 13.5 15.1106Z" fill="#FF5E00"/>
</svg>
