<svg width="17" height="17" viewBox="0 0 17 17" fill="none" xmlns="http://www.w3.org/2000/svg">
<path d="M8.50004 16.4167C4.12767 16.4167 0.583374 12.8724 0.583374 8.50004C0.583374 4.12767 4.12767 0.583374 8.50004 0.583374C12.8724 0.583374 16.4167 4.12767 16.4167 8.50004C16.4167 12.8724 12.8724 16.4167 8.50004 16.4167ZM7.70837 10.875V12.4584H9.29171V10.875H7.70837ZM9.29171 9.57275C9.92795 9.38099 10.4741 8.96709 10.8308 8.40642C11.1875 7.84576 11.331 7.17563 11.235 6.51808C11.1391 5.86053 10.8102 5.25931 10.3082 4.8239C9.80623 4.3885 9.16455 4.14788 8.50004 4.14587C7.85947 4.14583 7.23865 4.36766 6.74317 4.77366C6.24769 5.17966 5.90813 5.74475 5.78225 6.37283L7.3355 6.68396C7.37958 6.46343 7.48538 6.25994 7.64058 6.09719C7.79579 5.93443 7.99402 5.8191 8.21221 5.7646C8.4304 5.7101 8.65959 5.71869 8.87309 5.78935C9.0866 5.86001 9.27565 5.98985 9.41824 6.16376C9.56084 6.33767 9.65112 6.5485 9.67858 6.77171C9.70604 6.99492 9.66955 7.22134 9.57336 7.42463C9.47717 7.62791 9.32523 7.7997 9.13522 7.92001C8.9452 8.04032 8.72494 8.10419 8.50004 8.10421C8.29008 8.10421 8.08872 8.18762 7.94025 8.33608C7.79178 8.48455 7.70837 8.68591 7.70837 8.89587V10.0834H9.29171V9.57275Z" fill="#566777"/>
</svg>
