<svg width="56" height="54" viewBox="0 0 56 54" fill="none" xmlns="http://www.w3.org/2000/svg">
<path d="M43.0833 26.5833V46.1667C43.0833 46.6861 42.877 47.1842 42.5098 47.5514C42.1425 47.9187 41.6444 48.125 41.125 48.125H5.875C5.35562 48.125 4.85751 47.9187 4.49025 47.5514C4.12299 47.1842 3.91667 46.6861 3.91667 46.1667V26.5833H43.0833ZM43.0833 22.6667H3.91667V14.8333C3.91667 14.314 4.12299 13.8158 4.49025 13.4486C4.85751 13.0813 5.35562 12.875 5.875 12.875H41.125C41.6444 12.875 42.1425 13.0813 42.5098 13.4486C42.877 13.8158 43.0833 14.314 43.0833 14.8333V22.6667ZM29.375 38.3333V42.25H37.2083V38.3333H29.375Z" fill="#27AE60"/>
<path d="M30.5 13.5C30.5 20.1276 35.8724 25.5 42.5 25.5C49.1276 25.5 54.5 20.1276 54.5 13.5C54.5 6.87242 49.1276 1.5 42.5 1.5C35.8724 1.5 30.5 6.87242 30.5 13.5Z" fill="#27AE60" stroke="white" stroke-width="3"/>
<path d="M37.76 12.7569L42.003 16.9999L49.074 9.92889L47.659 8.51489L42.003 14.1719L39.174 11.3429L37.76 12.7569Z" fill="white"/>
</svg>
